distrib/share/tutorials/yagle/rom/rom1/r256x8_1.vcd
$date
   Nov 06, 2003  11:57:09
$end
$version
   Synopsys 1076 VHDL Simulator Version 2000.12
$end
$timescale
   1 ps
$end

$comment Csum: 1 a2ad9777508b8a89 $end

$scope module TB_R256X8_1 $end
$scope module INS_R256X8_1 $end
$var wire 2 ! CK [1:0] $end
$var wire 1 " RL_0_E1 $end
$var wire 1 # RL_1_E1 $end
$var wire 1 $ RL_2_E1 $end
$var wire 1 % RL_3_E1 $end
$var wire 1 & RL_4_E1 $end
$var wire 1 ' RL_5_E1 $end
$var wire 1 ( RL_6_E1 $end
$var wire 1 ) RL_7_E1 $end
$var wire 1 * RL_0_W1 $end
$var wire 1 + RL_0_W2 $end
$var wire 1 , RL_0_W3 $end
$var wire 1 - RL_0_W4 $end
$var wire 1 . RL_1_W4 $end
$var wire 1 / RL_1_W3 $end
$var wire 1 0 RL_1_W2 $end
$var wire 1 1 RL_1_W1 $end
$var wire 1 2 RL_2_W4 $end
$var wire 1 3 RL_2_W3 $end
$var wire 1 4 RL_2_W2 $end
$var wire 1 5 RL_2_W1 $end
$var wire 1 6 RL_3_W4 $end
$var wire 1 7 RL_3_W3 $end
$var wire 1 8 RL_3_W2 $end
$var wire 1 9 RL_3_W1 $end
$var wire 1 : RL_4_W4 $end
$var wire 1 ; RL_4_W3 $end
$var wire 1 < RL_4_W2 $end
$var wire 1 = RL_4_W1 $end
$var wire 1 > RL_5_W4 $end
$var wire 1 ? RL_5_W3 $end
$var wire 1 @ RL_5_W2 $end
$var wire 1 A RL_5_W1 $end
$var wire 1 B RL_6_W4 $end
$var wire 1 C RL_6_W3 $end
$var wire 1 D RL_6_W2 $end
$var wire 1 E RL_6_W1 $end
$var wire 1 F RL_7_W4 $end
$var wire 1 G RL_7_W3 $end
$var wire 1 H RL_7_W2 $end
$var wire 1 I RL_7_W1 $end
$var wire 1 J RLI_1_F $end
$var wire 1 K RLI_2_F $end
$var wire 1 L RLI_0_F $end
$var wire 1 M RCK_CKP $end
$var wire 1 N X2_CK_11 $end
$var wire 1 O X1_CK_13 $end
$var wire 8 P ADR [7:0] $end
$var wire 1 Q RCK_CK_02 $end
$var wire 1 R RCK_CK_03 $end
$var wire 1 S RMX2_1_I0 $end
$var wire 1 T RMX2_1_I1 $end
$var wire 1 U RMX2_3_I0 $end
$var wire 1 V RMX2_3_I1 $end
$var wire 1 W RMX2_5_I0 $end
$var wire 1 X RMX2_7_I0 $end
$var wire 1 Y RMX2_7_I1 $end
$var wire 1 Z N23 $end
$var wire 1 [ VDD $end
$scope task _P0 $end
$upscope $end
$scope task _P1 $end
$upscope $end
$scope task _P2 $end
$upscope $end
$scope task _P3 $end
$upscope $end
$scope task _P4 $end
$upscope $end
$scope task _P5 $end
$upscope $end
$scope task _P6 $end
$upscope $end
$scope task _P7 $end
$upscope $end
$scope task _P8 $end
$upscope $end
$scope task _P9 $end
$upscope $end
$var wire 1 \ N713 $end
$var wire 1 ] N570 $end
$var wire 1 ^ N832 $end
$var wire 1 _ N317 $end
$var wire 1 ` N465 $end
$var wire 1 a N105 $end
$var wire 1 b VSS $end
$var wire 1 c RBL4_1_2_E0 $end
$var wire 1 d RBL4_1_2_E1 $end
$var wire 1 e RBL4_1_2_E2 $end
$var wire 1 f RBL4_1_2_E3 $end
$scope task REG0 $end
$upscope $end
$scope task REG1 $end
$upscope $end
$scope task _P10 $end
$upscope $end
$scope task _P11 $end
$upscope $end
$scope task _P12 $end
$upscope $end
$scope task _P22 $end
$upscope $end
$scope task _P50 $end
$upscope $end
$scope task _P51 $end
$upscope $end
$scope task _P52 $end
$upscope $end
$scope task _P44 $end
$upscope $end
$scope task _P45 $end
$upscope $end
$scope task _P46 $end
$upscope $end
$scope task _P47 $end
$upscope $end
$scope task _P48 $end
$upscope $end
$scope task _P49 $end
$upscope $end
$scope task _P53 $end
$upscope $end
$scope task _P54 $end
$upscope $end
$scope task _P55 $end
$upscope $end
$scope task _P56 $end
$upscope $end
$scope task _P57 $end
$upscope $end
$scope task _P58 $end
$upscope $end
$scope task _P23 $end
$upscope $end
$scope task _P24 $end
$upscope $end
$scope task _P25 $end
$upscope $end
$scope task _P26 $end
$upscope $end
$scope task _P13 $end
$upscope $end
$scope task _P14 $end
$upscope $end
$scope task _P15 $end
$upscope $end
$scope task _P16 $end
$upscope $end
$scope task _P17 $end
$upscope $end
$scope task _P18 $end
$upscope $end
$scope task _P19 $end
$upscope $end
$scope task _P20 $end
$upscope $end
$scope task _P21 $end
$upscope $end
$scope task _P27 $end
$upscope $end
$scope task _P28 $end
$upscope $end
$scope task _P29 $end
$upscope $end
$scope task _P30 $end
$upscope $end
$scope task _P31 $end
$upscope $end
$scope task _P32 $end
$upscope $end
$scope task _P33 $end
$upscope $end
$scope task _P34 $end
$upscope $end
$scope task _P35 $end
$upscope $end
$scope task _P36 $end
$upscope $end
$scope task _P37 $end
$upscope $end
$scope task _P38 $end
$upscope $end
$scope task _P39 $end
$upscope $end
$scope task _P40 $end
$upscope $end
$scope task _P41 $end
$upscope $end
$scope task _P42 $end
$upscope $end
$scope task _P43 $end
$upscope $end
$scope task REG30 $end
$upscope $end
$scope task REG31 $end
$upscope $end
$scope task REG32 $end
$upscope $end
$scope task REG24 $end
$upscope $end
$scope task REG25 $end
$upscope $end
$scope task REG26 $end
$upscope $end
$scope task REG27 $end
$upscope $end
$scope task REG28 $end
$upscope $end
$scope task REG29 $end
$upscope $end
$scope task REG33 $end
$upscope $end
$scope task REG34 $end
$upscope $end
$scope task REG35 $end
$upscope $end
$scope task REG36 $end
$upscope $end
$scope task _P59 $end
$upscope $end
$scope task _P60 $end
$upscope $end
$scope task _P61 $end
$upscope $end
$scope task _P62 $end
$upscope $end
$scope task _P63 $end
$upscope $end
$scope task _P64 $end
$upscope $end
$scope task _P65 $end
$upscope $end
$scope task _P66 $end
$upscope $end
$scope task _P67 $end
$upscope $end
$scope task _P68 $end
$upscope $end
$scope task _P69 $end
$upscope $end
$scope task _P70 $end
$upscope $end
$scope task _P71 $end
$upscope $end
$scope task _P72 $end
$upscope $end
$scope task _P73 $end
$upscope $end
$scope task _P74 $end
$upscope $end
$scope task _P75 $end
$upscope $end
$scope task _P76 $end
$upscope $end
$scope task _P77 $end
$upscope $end
$scope task _P78 $end
$upscope $end
$scope task _P79 $end
$upscope $end
$scope task _P80 $end
$upscope $end
$scope task _P81 $end
$upscope $end
$scope task _P82 $end
$upscope $end
$scope task _P83 $end
$upscope $end
$scope task _P84 $end
$upscope $end
$scope task _P85 $end
$upscope $end
$scope task REG2 $end
$upscope $end
$scope task REG3 $end
$upscope $end
$scope task REG4 $end
$upscope $end
$scope task REG5 $end
$upscope $end
$scope task REG6 $end
$upscope $end
$var wire 1 g X0_W0 $end
$var wire 1 h X0_W1 $end
$var wire 1 i X0_W2 $end
$scope task REG7 $end
$upscope $end
$var wire 1 j X1_W3 $end
$scope task REG8 $end
$upscope $end
$scope task REG9 $end
$upscope $end
$scope task REG10 $end
$upscope $end
$scope task REG11 $end
$upscope $end
$scope task REG12 $end
$upscope $end
$scope task REG13 $end
$upscope $end
$scope task REG14 $end
$upscope $end
$scope task REG15 $end
$upscope $end
$scope task REG16 $end
$upscope $end
$scope task REG17 $end
$upscope $end
$scope task REG18 $end
$upscope $end
$scope task REG19 $end
$upscope $end
$scope task REG20 $end
$upscope $end
$scope task REG21 $end
$upscope $end
$scope task REG22 $end
$upscope $end
$scope task REG23 $end
$upscope $end
$scope task REG37 $end
$upscope $end
$scope task REG38 $end
$upscope $end
$scope task REG39 $end
$upscope $end
$scope task REG40 $end
$upscope $end
$scope task REG41 $end
$upscope $end
$scope task REG42 $end
$upscope $end
$scope task REG43 $end
$upscope $end
$scope task REG44 $end
$upscope $end
$scope task REG45 $end
$upscope $end
$scope task REG46 $end
$upscope $end
$scope task REG47 $end
$upscope $end
$scope task REG48 $end
$upscope $end
$scope task REG49 $end
$upscope $end
$scope task REG50 $end
$upscope $end
$scope task REG51 $end
$upscope $end
$scope task REG52 $end
$upscope $end
$scope task REG53 $end
$upscope $end
$scope task REG54 $end
$upscope $end
$scope task _P86 $end
$upscope $end
$scope task _P87 $end
$upscope $end
$scope task _P88 $end
$upscope $end
$scope task _P89 $end
$upscope $end
$scope task _P90 $end
$upscope $end
$scope task _P91 $end
$upscope $end
$scope task _P92 $end
$upscope $end
$scope task _P93 $end
$upscope $end
$var wire 1 k RMX2_0_S_P $end
$var wire 1 l RMX2_1_S_P $end
$var wire 1 m RMX2_2_S_P $end
$var wire 1 n RMX2_3_S_P $end
$var wire 1 o RMX2_4_S_P $end
$var wire 1 p RMX2_5_S_P $end
$var wire 1 q RMX2_6_S_P $end
$var wire 1 r RMX2_7_S_P $end
$var wire 1 s N1304 $end
$var wire 1 t N1303 $end
$var wire 1 u RMX4_0_BIT_P $end
$var wire 1 v RMX4_1_BIT_P $end
$var wire 1 w RMX4_2_BIT_P $end
$var wire 1 x RMX4_3_BIT_P $end
$var wire 1 y RMX4_4_BIT_P $end
$var wire 1 z RMX4_5_BIT_P $end
$var wire 1 { RMX4_6_BIT_P $end
$var wire 1 | RMX4_7_BIT_P $end
$var wire 1 } RMX4_8_BIT_P $end
$var wire 1 ~ RMX4_9_BIT_P $end
$var wire 1 !! N1294 $end
$var wire 1 "! N1293 $end
$var wire 1 #! N1285 $end
$var wire 1 $! N1283 $end
$var wire 1 %! N1274 $end
$var wire 1 &! N1273 $end
$var wire 1 '! RW0_N1 $end
$var wire 1 (! RW1_N1 $end
$var wire 1 )! RW2_N1 $end
$var wire 1 *! RW3_N1 $end
$var wire 1 +! N1002 $end
$var wire 1 ,! X0_S7 $end
$var wire 1 -! RW3_E3 $end
$var wire 1 .! X2_S0 $end
$var wire 8 /! F [7:0] $end
$var wire 1 0! X1_S5 $end
$var wire 1 1! RW3_E1 $end
$var wire 1 2! BF_E0 $end
$var wire 1 3! BF_E1 $end
$var wire 1 4! UMF_E6 $end
$var wire 1 5! UMF_E9 $end
$var wire 1 6! UMF_E7 $end
$var wire 1 7! UMF_E8 $end
$var wire 1 8! UMF_E3 $end
$var wire 1 9! UMF_E4 $end
$var wire 1 :! UMF_E5 $end
$var wire 1 ;! UMF_E2 $end
$var wire 1 <! UMF_E1 $end
$var wire 1 =! RBL4_1_2_E15 $end
$var wire 1 >! UMF_E0 $end
$var wire 1 ?! RBL4_1_2_E12 $end
$var wire 1 @! RBL4_1_2_E13 $end
$var wire 1 A! RBL4_1_2_E14 $end
$var wire 1 B! RBL4_1_2_E11 $end
$var wire 1 C! RBL4_1_2_E9 $end
$var wire 1 D! RBL4_1_2_E8 $end
$var wire 1 E! RBL4_1_2_E10 $end
$var wire 1 F! RBL4_1_2_E5 $end
$var wire 1 G! RBL4_1_2_E6 $end
$var wire 1 H! RBL4_1_2_E7 $end
$var wire 1 I! RMX4_11_BIT_P $end
$var wire 1 J! RMX4_12_BIT_P $end
$var wire 1 K! RMX4_13_BIT_P $end
$var wire 1 L! RMX4_14_BIT_P $end
$var wire 1 M! RMX4_15_BIT_P $end
$var wire 1 N! UMF_E10 $end
$var wire 1 O! UMF_E11 $end
$var wire 1 P! UMF_E12 $end
$var wire 1 Q! UMF_E13 $end
$var wire 1 R! UMF_E14 $end
$var wire 1 S! UMF_E15 $end
$var wire 1 T! UMF_E31 $end
$upscope $end
$upscope $end
$enddefinitions
$end
$dumpvars
bX P
bX !
bX /!
X[
Xb
Xk
Xl
Xm
Xn
Xo
Xp
Xq
Xr
Xu
Xv
Xw
Xx
Xy
Xz
X{
X|
X}
X~
XI!
XJ!
XK!
XL!
XM!
X-
X,
X+
X*
X.
X/
X0
X1
X2
X3
X4
X5
X6
X7
X8
X9
X:
X;
X<
X=
X>
X?
X@
XA
XB
XC
XD
XE
XF
XG
XH
XI
Xs
Xt
X!!
X"!
X#!
X$!
X%!
X&!
X+!
X^
X\
X]
X`
X_
Xa
XZ
X,!
X-!
X.!
X0!
XJ
XK
X1!
XL
X2!
X3!
XS
XT
XU
XV
XW
XX
XY
XO
Xj
XN
Xg
Xh
Xi
X'!
X(!
X*!
X)!
XS!
XQ!
XR!
XR
X"
XQ
XN!
XO!
XP!
X5!
X#
X4!
X6!
X7!
X$
X8!
X9!
X:!
X;!
X%
X<!
X=!
X>!
X&
X?!
X@!
XA!
XB!
X'
XC!
XD!
XE!
XF!
XT!
XG!
XH!
X(
Xf
Xe
Xd
X)
XM
Xc
$end
#0
b0 P
b0 !
1`
1_
1a
1Z
1L
1\
1]
1J
1^
1K
11!
0*!
0)!
1-!
0(!
1.!
03!
10!
0g
0h
1,!
0i
0Q
1N
0&
0'
0(
0)
0+!
0$
0%
0#
1'!
12!
1j
1R
1O
1"
0M
0-
1W
1S!
#10
b11 !
1Q
0N
0R
0"
02!
0O
0j
1-
1,
1+
1*
1.
1/
10
11
12
13
14
15
16
17
18
19
1:
1;
1<
1=
1>
1?
1@
1A
1B
1C
1D
1E
1F
1G
1H
1I
1M
1k
1l
1m
1n
1o
1q
1r
1p
1u
1v
1w
1x
1y
1z
1{
1|
1}
1~
1I!
1J!
1K!
1L!
1M!
0W
0S!
0R!
0Q!
0P!
0O!
0N!
05!
07!
06!
04!
0:!
09!
08!
0;!
0<!
0>!
0=!
0A!
0@!
0?!
0B!
0E!
0C!
0D!
0H!
0G!
0F!
0T!
0f
0e
0d
0c
b0 /!
0s
0t
0S
0T
0!!
0"!
0U
0V
0#!
0$!
0%!
0&!
0X
0Y
#20
b1 P
b0 !
0,!
0Q
1N
1R
1"
12!
1O
1i
0-
0M
1S!
1W
0L!
0M!
1X
1Y
0r
b10000000 /!
#30
b11 !
1Q
0N
0R
0"
02!
0O
0i
1-
1M
1r
1L!
1M!
0W
0S!
b0 /!
0X
0Y
#40
b10 P
b0 !
00!
1,!
0Q
1N
1h
1R
1"
12!
1O
0-
0M
1S!
1W
0J!
0K!
1%!
1&!
0q
b1000000 /!
#50
b11 !
1Q
0N
0R
0"
02!
0O
0h
1-
1M
1q
1J!
1K!
0W
0S!
b0 /!
0%!
0&!
#60
b11 P
b0 !
0,!
0Q
1N
1R
1"
12!
1O
1g
0-
0M
1S!
1W
0J!
0K!
0L!
0M!
1%!
1&!
1X
1Y
0q
0r
b11000000 /!
#70
b11 !
1Q
0N
0R
0"
02!
0O
0g
1-
1M
1q
1r
1J!
1K!
1L!
1M!
0W
0S!
b0 /!
0%!
0&!
0X
0Y
#80
b100 P
b0 !
0.!
10!
1,!
0Q
1N
1j
1R
1"
13!
1O
0-
0M
1S!
1W
0p
b100000 /!
#90
b11 !
1Q
0N
0R
0"
03!
0O
0j
1-
1M
1p
0W
0S!
b0 /!
#100
b101 P
b0 !
0,!
0Q
1N
1R
1"
13!
1O
1i
0-
0M
1S!
1W
0L!
0M!
0p
1X
1Y
b100000 /!
0r
b10100000 /!
#110
b11 !
1Q
0N
0R
0"
03!
0O
0i
1-
1M
1p
1r
1L!
1M!
0W
0S!
b0 /!
0X
0Y
#120
b110 P
b0 !
00!
1,!
0Q
1N
1h
1R
1"
13!
1O
0-
0M
1S!
1W
0J!
0K!
0p
1%!
1&!
b100000 /!
0q
b1100000 /!
#130
b11 !
1Q
0N
0R
0"
03!
0O
0h
1-
1M
1p
1q
1J!
1K!
0W
0S!
b0 /!
0%!
0&!
#140
b111 P
b0 !
0,!
0Q
1N
1R
1"
13!
1O
1g
0-
0M
1S!
1W
0J!
0K!
0L!
0M!
0p
1%!
1&!
1X
1Y
b100000 /!
0q
0r
b11100000 /!
#150
b11 !
1Q
0N
0R
0"
03!
0O
0g
1-
1M
1p
1q
1r
1J!
1K!
1L!
1M!
0W
0S!
b0 /!
0%!
0&!
0X
0Y
#160
b1000 P
b0 !
0-!
1(!
1.!
10!
1,!
0Q
1N
0'!
12!
1j
1R
1"
1O
0,
0M
1R!
1W
0}
0~
1#!
1$!
0o
b10000 /!
#170
b11 !
1Q
0N
0R
0"
02!
0O
0j
1,
1M
1o
1}
1~
0W
0R!
b0 /!
0#!
0$!
#180
b1001 P
b0 !
0,!
0Q
1N
1R
1"
12!
1O
1i
0,
0M
1R!
1W
0}
0~
0L!
0M!
1#!
1$!
1X
1Y
0o
0r
b10010000 /!
#190
b11 !
1Q
0N
0R
0"
02!
0O
0i
1,
1M
1o
1r
1}
1~
1L!
1M!
0W
0R!
b0 /!
0#!
0$!
0X
0Y
#200
b1010 P
b0 !
00!
1,!
0Q
1N
1h
1R
1"
12!
1O
0,
0M
1R!
1W
0}
0~
0J!
0K!
1#!
1$!
1%!
1&!
0o
0q
b1010000 /!
#210
b11 !
1Q
0N
0R
0"
02!
0O
0h
1,
1M
1o
1q
1}
1~
1J!
1K!
0W
0R!
b0 /!
0#!
0$!
0%!
0&!
#220
b1011 P
b0 !
0,!
0Q
1N
1R
1"
12!
1O
1g
0,
0M
1R!
1W
0}
0~
0J!
0K!
0L!
0M!
1#!
1$!
1%!
1&!
1X
1Y
0o
0q
0r
b11010000 /!
#230
b11 !
1Q
0N
0R
0"
02!
0O
0g
1,
1M
1o
1q
1r
1}
1~
1J!
1K!
1L!
1M!
0W
0R!
b0 /!
0#!
0$!
0%!
0&!
0X
0Y
#240
b1100 P
b0 !
0.!
10!
1,!
0Q
1N
1j
1R
1"
13!
1O
0,
0M
1R!
1W
0}
0~
0p
1#!
1$!
b100000 /!
0o
b110000 /!
#250
b11 !
1Q
0N
0R
0"
03!
0O
0j
1,
1M
1o
1p
1}
1~
0W
0R!
b0 /!
0#!
0$!
#260
b1101 P
b0 !
0,!
0Q
1N
1R
1"
13!
1O
1i
0,
0M
1R!
1W
0}
0~
0L!
0M!
0p
1#!
1$!
1X
1Y
b100000 /!
0o
0r
b10110000 /!
#270
b11 !
1Q
0N
0R
0"
03!
0O
0i
1,
1M
1o
1p
1r
1}
1~
1L!
1M!
0W
0R!
b0 /!
0#!
0$!
0X
0Y
#280
b1110 P
b0 !
00!
1,!
0Q
1N
1h
1R
1"
13!
1O
0,
0M
1R!
1W
0}
0~
0J!
0K!
0p
1#!
1$!
1%!
1&!
b100000 /!
0o
0q
b1110000 /!
#290
b11 !
1Q
0N
0R
0"
03!
0O
0h
1,
1M
1o
1p
1q
1}
1~
1J!
1K!
0W
0R!
b0 /!
0#!
0$!
0%!
0&!
#300
b1111 P
b0 !
0,!
0Q
1N
1R
1"
13!
1O
1g
0,
0M
1R!
1W
0}
0~
0J!
0K!
0L!
0M!
0p
1#!
1$!
1%!
1&!
1X
1Y
b100000 /!
0o
0q
0r
b11110000 /!
#310
b11 !
1Q
0N
0R
0"
03!
0O
0g
1,
1M
1o
1p
1q
1r
1}
1~
1J!
1K!
1L!
1M!
0W
0R!
b0 /!
0#!
0$!
0%!
0&!
0X
0Y
#320
b10000 P
b0 !
01!
1-!
0(!
1.!
10!
1,!
0Q
1N
1)!
12!
1j
1R
1"
1O
0+
0M
1Q!
1W
0{
0|
1U
1V
0n
b1000 /!
#330
b11 !
1Q
0N
0R
0"
02!
0O
0j
1+
1M
1n
1{
1|
0W
0Q!
b0 /!
0U
0V
#340
b10001 P
b0 !
0,!
0Q
1N
1R
1"
12!
1O
1i
0+
0M
1Q!
1W
0{
0|
0L!
0M!
1U
1V
1X
1Y
0n
0r
b10001000 /!
#350
b11 !
1Q
0N
0R
0"
02!
0O
0i
1+
1M
1n
1r
1{
1|
1L!
1M!
0W
0Q!
b0 /!
0U
0V
0X
0Y
#360
b10010 P
b0 !
00!
1,!
0Q
1N
1h
1R
1"
12!
1O
0+
0M
1Q!
1W
0{
0|
0J!
0K!
1U
1V
1%!
1&!
0n
0q
b1001000 /!
#370
b11 !
1Q
0N
0R
0"
02!
0O
0h
1+
1M
1n
1q
1{
1|
1J!
1K!
0W
0Q!
b0 /!
0U
0V
0%!
0&!
#380
b10011 P
b0 !
0,!
0Q
1N
1R
1"
12!
1O
1g
0+
0M
1Q!
1W
0{
0|
0J!
0K!
0L!
0M!
1U
1V
1%!
1&!
1X
1Y
0n
0q
0r
b11001000 /!
#390
b11 !
1Q
0N
0R
0"
02!
0O
0g
1+
1M
1n
1q
1r
1{
1|
1J!
1K!
1L!
1M!
0W
0Q!
b0 /!
0U
0V
0%!
0&!
0X
0Y
#400
b10100 P
b0 !
0.!
10!
1,!
0Q
1N
1j
1R
1"
13!
1O
0+
0M
1Q!
1W
0{
0|
0p
1U
1V
b100000 /!
0n
b101000 /!
#410
b11 !
1Q
0N
0R
0"
03!
0O
0j
1+
1M
1n
1p
1{
1|
0W
0Q!
b0 /!
0U
0V
#420
b10101 P
b0 !
0,!
0Q
1N
1R
1"
13!
1O
1i
0+
0M
1Q!
1W
0{
0|
0L!
0M!
0p
1U
1V
1X
1Y
b100000 /!
0n
0r
b10101000 /!
#430
b11 !
1Q
0N
0R
0"
03!
0O
0i
1+
1M
1n
1p
1r
1{
1|
1L!
1M!
0W
0Q!
b0 /!
0U
0V
0X
0Y
#440
b10110 P
b0 !
00!
1,!
0Q
1N
1h
1R
1"
13!
1O
0+
0M
1Q!
1W
0{
0|
0J!
0K!
0p
1U
1V
1%!
1&!
b100000 /!
0n
0q
b1101000 /!
#450
b11 !
1Q
0N
0R
0"
03!
0O
0h
1+
1M
1n
1p
1q
1{
1|
1J!
1K!
0W
0Q!
b0 /!
0U
0V
0%!
0&!
#460
b10111 P
b0 !
0,!
0Q
1N
1R
1"
13!
1O
1g
0+
0M
1Q!
1W
0{
0|
0J!
0K!
0L!
0M!
0p
1U
1V
1%!
1&!
1X
1Y
b100000 /!
0n
0q
0r
b11101000 /!
#470
b11 !
1Q
0N
0R
0"
03!
0O
0g
1+
1M
1n
1p
1q
1r
1{
1|
1J!
1K!
1L!
1M!
0W
0Q!
b0 /!
0U
0V
0%!
0&!
0X
0Y
#480
b11000 P
b0 !
0-!
1*!
1.!
10!
1,!
0Q
1N
0)!
12!
1j
1R
1"
1O
0*
0M
1P!
1W
0{
0|
0}
0~
1U
1V
1#!
1$!
0n
0o
b11000 /!
#490
b11 !
1Q
0N
0R
0"
02!
0O
0j
1*
1M
1n
1o
1{
1|
1}
1~
0W
0P!
b0 /!
0U
0V
0#!
0$!
#500
b11001 P
b0 !
0,!
0Q
1N
1R
1"
12!
1O
1i
0*
0M
1P!
1W
0{
0|
0}
0~
0L!
0M!
1U
1V
1#!
1$!
1X
1Y
0n
0o
0r
b10011000 /!
#510
b11 !
1Q
0N
0R
0"
02!
0O
0i
1*
1M
1n
1o
1r
1{
1|
1}
1~
1L!
1M!
0W
0P!
b0 /!
0U
0V
0#!
0$!
0X
0Y
#520
b11010 P
b0 !
00!
1,!
0Q
1N
1h
1R
1"
12!
1O
0*
0M
1P!
1W
0{
0|
0}
0~
0J!
0K!
1U
1V
1#!
1$!
1%!
1&!
0n
0o
0q
b1011000 /!
#530
b11 !
1Q
0N
0R
0"
02!
0O
0h
1*
1M
1n
1o
1q
1{
1|
1}
1~
1J!
1K!
0W
0P!
b0 /!
0U
0V
0#!
0$!
0%!
0&!
#540
b11011 P
b0 !
0,!
0Q
1N
1R
1"
12!
1O
1g
0*
0M
1P!
1W
0{
0|
0}
0~
0J!
0K!
0L!
0M!
1U
1V
1#!
1$!
1%!
1&!
1X
1Y
0n
0o
0q
0r
b11011000 /!
#550
b11 !
1Q
0N
0R
0"
02!
0O
0g
1*
1M
1n
1o
1q
1r
1{
1|
1}
1~
1J!
1K!
1L!
1M!
0W
0P!
b0 /!
0U
0V
0#!
0$!
0%!
0&!
0X
0Y
#560
b11100 P
b0 !
0.!
10!
1,!
0Q
1N
1j
1R
1"
13!
1O
0*
0M
1P!
1W
0{
0|
0}
0~
0p
1U
1V
1#!
1$!
b100000 /!
0n
0o
b111000 /!
#570
b11 !
1Q
0N
0R
0"
03!
0O
0j
1*
1M
1n
1o
1p
1{
1|
1}
1~
0W
0P!
b0 /!
0U
0V
0#!
0$!
#580
b11101 P
b0 !
0,!
0Q
1N
1R
1"
13!
1O
1i
0*
0M
1P!
1W
0{
0|
0}
0~
0L!
0M!
0p
1U
1V
1#!
1$!
1X
1Y
b100000 /!
0n
0o
0r
b10111000 /!
#590
b11 !
1Q
0N
0R
0"
03!
0O
0i
1*
1M
1n
1o
1p
1r
1{
1|
1}
1~
1L!
1M!
0W
0P!
b0 /!
0U
0V
0#!
0$!
0X
0Y
#600
b11110 P
b0 !
00!
1,!
0Q
1N
1h
1R
1"
13!
1O
0*
0M
1P!
1W
0{
0|
0}
0~
0J!
0K!
0p
1U
1V
1#!
1$!
1%!
1&!
b100000 /!
0n
0o
0q
b1111000 /!
#610
b11 !
1Q
0N
0R
0"
03!
0O
0h
1*
1M
1n
1o
1p
1q
1{
1|
1}
1~
1J!
1K!
0W
0P!
b0 /!
0U
0V
0#!
0$!
0%!
0&!
#620
b11111 P
b0 !
0,!
0Q
1N
1R
1"
13!
1O
1g
0*
0M
1P!
1W
0{
0|
0}
0~
0J!
0K!
0L!
0M!
0p
1U
1V
1#!
1$!
1%!
1&!
1X
1Y
b100000 /!
0n
0o
0q
0r
b11111000 /!
#630
b11 !
1Q
0N
0R
0"
03!
0O
0g
1*
1M
1n
1o
1p
1q
1r
1{
1|
1}
1~
1J!
1K!
1L!
1M!
0W
0P!
b0 /!
0U
0V
0#!
0$!
0%!
0&!
0X
0Y
#640
b100000 P
b0 !
0^
0K
11!
0*!
1-!
1.!
10!
1,!
0Q
1N
1#
1+!
1'!
12!
1j
1R
1"
1O
0.
0"
0-
0M
1O!
1S!
1W
0y
0z
1!!
1"!
0m
b100 /!
#650
b11 !
1Q
0N
0R
0#
02!
0O
0j
1-
1.
1M
1m
1y
1z
0W
0S!
0O!
b0 /!
0!!
0"!
#660
b100001 P
b0 !
0,!
0Q
1N
1R
1#
12!
1O
1i
0.
0M
1O!
1W
0y
0z
0L!
0M!
1!!
1"!
1X
1Y
0m
0r
b10000100 /!
#670
b11 !
1Q
0N
0R
0#
02!
0O
0i
1.
1M
1m
1r
1y
1z
1L!
1M!
0W
0O!
b0 /!
0!!
0"!
0X
0Y
#680
b100010 P
b0 !
00!
1,!
0Q
1N
1h
1R
1#
12!
1O
0.
0M
1O!
1W
0y
0z
0J!
0K!
1!!
1"!
1%!
1&!
0m
0q
b1000100 /!
#690
b11 !
1Q
0N
0R
0#
02!
0O
0h
1.
1M
1m
1q
1y
1z
1J!
1K!
0W
0O!
b0 /!
0!!
0"!
0%!
0&!
#700
b100011 P
b0 !
0,!
0Q
1N
1R
1#
12!
1O
1g
0.
0M
1O!
1W
0y
0z
0J!
0K!
0L!
0M!
1!!
1"!
1%!
1&!
1X
1Y
0m
0q
0r
b11000100 /!
#710
b11 !
1Q
0N
0R
0#
02!
0O
0g
1.
1M
1m
1q
1r
1y
1z
1J!
1K!
1L!
1M!
0W
0O!
b0 /!
0!!
0"!
0%!
0&!
0X
0Y
#720
b100100 P
b0 !
0.!
10!
1,!
0Q
1N
1j
1R
1#
13!
1O
0.
0M
1O!
1W
0y
0z
0p
1!!
1"!
b100000 /!
0m
b100100 /!
#730
b11 !
1Q
0N
0R
0#
03!
0O
0j
1.
1M
1m
1p
1y
1z
0W
0O!
b0 /!
0!!
0"!
#740
b100101 P
b0 !
0,!
0Q
1N
1R
1#
13!
1O
1i
0.
0M
1O!
1W
0y
0z
0L!
0M!
0p
1!!
1"!
1X
1Y
b100000 /!
0m
0r
b10100100 /!
#750
b11 !
1Q
0N
0R
0#
03!
0O
0i
1.
1M
1m
1p
1r
1y
1z
1L!
1M!
0W
0O!
b0 /!
0!!
0"!
0X
0Y
#760
b100110 P
b0 !
00!
1,!
0Q
1N
1h
1R
1#
13!
1O
0.
0M
1O!
1W
0y
0z
0J!
0K!
0p
1!!
1"!
1%!
1&!
b100000 /!
0m
0q
b1100100 /!
#770
b11 !
1Q
0N
0R
0#
03!
0O
0h
1.
1M
1m
1p
1q
1y
1z
1J!
1K!
0W
0O!
b0 /!
0!!
0"!
0%!
0&!
#780
b100111 P
b0 !
0,!
0Q
1N
1R
1#
13!
1O
1g
0.
0M
1O!
1W
0y
0z
0J!
0K!
0L!
0M!
0p
1!!
1"!
1%!
1&!
1X
1Y
b100000 /!
0m
0q
0r
b11100100 /!
#790
b11 !
1Q
0N
0R
0#
03!
0O
0g
1.
1M
1m
1p
1q
1r
1y
1z
1J!
1K!
1L!
1M!
0W
0O!
b0 /!
0!!
0"!
0%!
0&!
0X
0Y
#800
b101000 P
b0 !
0-!
1(!
1.!
10!
1,!
0Q
1N
0'!
12!
1j
1R
1#
1O
0/
0M
1N!
1W
0y
0z
0}
0~
1!!
1"!
1#!
1$!
0m
0o
b10100 /!
#810
b11 !
1Q
0N
0R
0#
02!
0O
0j
1/
1M
1m
1o
1y
1z
1}
1~
0W
0N!
b0 /!
0!!
0"!
0#!
0$!
#820
b101001 P
b0 !
0,!
0Q
1N
1R
1#
12!
1O
1i
0/
0M
1N!
1W
0y
0z
0}
0~
0L!
0M!
1!!
1"!
1#!
1$!
1X
1Y
0m
0o
0r
b10010100 /!
#830
b11 !
1Q
0N
0R
0#
02!
0O
0i
1/
1M
1m
1o
1r
1y
1z
1}
1~
1L!
1M!
0W
0N!
b0 /!
0!!
0"!
0#!
0$!
0X
0Y
#840
b101010 P
b0 !
00!
1,!
0Q
1N
1h
1R
1#
12!
1O
0/
0M
1N!
1W
0y
0z
0}
0~
0J!
0K!
1!!
1"!
1#!
1$!
1%!
1&!
0m
0o
0q
b1010100 /!
#850
b11 !
1Q
0N
0R
0#
02!
0O
0h
1/
1M
1m
1o
1q
1y
1z
1}
1~
1J!
1K!
0W
0N!
b0 /!
0!!
0"!
0#!
0$!
0%!
0&!
