tutorials/yagle/rom/rom5/r256x8_5.vcd
$date
   Nov 06, 2003  12:07:20
$end
$version
   Synopsys 1076 VHDL Simulator Version 2000.12
$end
$timescale
   1 ps
$end

$comment Csum: 1 a33843e0aaa69d65 $end

$scope module TB_R256X8_5 $end
$scope module INS_R256X8_5 $end
$var wire 2 ! CK [1:0] $end
$var wire 1 " RL_0_E1 $end
$var wire 1 # RL_1_E1 $end
$var wire 1 $ RL_2_E1 $end
$var wire 1 % RL_3_E1 $end
$var wire 1 & RL_4_E1 $end
$var wire 1 ' RL_5_E1 $end
$var wire 1 ( RL_6_E1 $end
$var wire 1 ) RL_7_E1 $end
$scope task REG0 $end
$upscope $end
$scope task REG1 $end
$upscope $end
$scope task REG2 $end
$upscope $end
$scope task REG3 $end
$upscope $end
$scope task _P10 $end
$upscope $end
$scope task _P11 $end
$upscope $end
$var wire 1 * RL_0_W1 $end
$var wire 1 + RL_0_W2 $end
$var wire 1 , RL_0_W3 $end
$var wire 1 - RL_0_W4 $end
$var wire 1 . RL_1_W4 $end
$var wire 1 / RL_1_W3 $end
$var wire 1 0 RL_1_W2 $end
$var wire 1 1 RL_1_W1 $end
$var wire 1 2 RL_2_W4 $end
$var wire 1 3 RL_2_W3 $end
$var wire 1 4 RL_2_W2 $end
$var wire 1 5 RL_2_W1 $end
$var wire 1 6 RMX2_7_S_P $end
$scope task _P50 $end
$upscope $end
$scope task _P51 $end
$upscope $end
$scope task _P52 $end
$upscope $end
$scope task _P44 $end
$upscope $end
$scope task _P45 $end
$upscope $end
$scope task _P46 $end
$upscope $end
$scope task _P47 $end
$upscope $end
$scope task _P48 $end
$upscope $end
$scope task _P49 $end
$upscope $end
$scope task _P53 $end
$upscope $end
$scope task _P54 $end
$upscope $end
$scope task _P22 $end
$upscope $end
$scope task _P23 $end
$upscope $end
$scope task _P24 $end
$upscope $end
$scope task _P25 $end
$upscope $end
$scope task _P26 $end
$upscope $end
$scope task _P12 $end
$upscope $end
$scope task _P13 $end
$upscope $end
$scope task _P14 $end
$upscope $end
$scope task _P15 $end
$upscope $end
$scope task _P16 $end
$upscope $end
$scope task _P17 $end
$upscope $end
$scope task _P18 $end
$upscope $end
$scope task _P19 $end
$upscope $end
$scope task _P20 $end
$upscope $end
$scope task _P21 $end
$upscope $end
$scope task _P27 $end
$upscope $end
$scope task _P28 $end
$upscope $end
$scope task _P29 $end
$upscope $end
$scope task _P30 $end
$upscope $end
$scope task _P31 $end
$upscope $end
$scope task _P32 $end
$upscope $end
$scope task _P33 $end
$upscope $end
$scope task _P34 $end
$upscope $end
$scope task _P35 $end
$upscope $end
$scope task _P36 $end
$upscope $end
$scope task _P37 $end
$upscope $end
$scope task _P38 $end
$upscope $end
$scope task _P39 $end
$upscope $end
$scope task _P40 $end
$upscope $end
$scope task _P41 $end
$upscope $end
$scope task _P42 $end
$upscope $end
$scope task _P43 $end
$upscope $end
$scope task REG4 $end
$upscope $end
$scope task REG5 $end
$upscope $end
$scope task REG6 $end
$upscope $end
$scope task REG7 $end
$upscope $end
$scope task REG8 $end
$upscope $end
$scope task REG9 $end
$upscope $end
$scope task REG10 $end
$upscope $end
$scope task REG11 $end
$upscope $end
$scope task REG12 $end
$upscope $end
$scope task REG13 $end
$upscope $end
$scope task REG14 $end
$upscope $end
$scope task REG15 $end
$upscope $end
$scope task REG16 $end
$upscope $end
$scope task REG17 $end
$upscope $end
$scope task REG18 $end
$upscope $end
$scope task REG19 $end
$upscope $end
$var wire 8 7 ADR [7:0] $end
$scope task REG20 $end
$upscope $end
$scope task REG21 $end
$upscope $end
$scope task REG22 $end
$upscope $end
$scope task REG23 $end
$upscope $end
$scope task REG24 $end
$upscope $end
$scope task REG25 $end
$upscope $end
$scope task REG26 $end
$upscope $end
$scope task REG27 $end
$upscope $end
$scope task REG28 $end
$upscope $end
$scope task REG29 $end
$upscope $end
$scope task REG30 $end
$upscope $end
$scope task REG31 $end
$upscope $end
$scope task REG32 $end
$upscope $end
$scope task REG33 $end
$upscope $end
$scope task REG34 $end
$upscope $end
$scope task REG35 $end
$upscope $end
$scope task REG36 $end
$upscope $end
$scope task REG37 $end
$upscope $end
$scope task REG38 $end
$upscope $end
$scope task REG39 $end
$upscope $end
$scope task _P55 $end
$upscope $end
$scope task _P56 $end
$upscope $end
$scope task _P57 $end
$upscope $end
$scope task _P58 $end
$upscope $end
$scope task _P59 $end
$upscope $end
$scope task _P60 $end
$upscope $end
$scope task _P61 $end
$upscope $end
$scope task _P62 $end
$upscope $end
$var wire 1 8 RMX2_0_S_P $end
$var wire 1 9 RMX2_1_S_P $end
$var wire 1 : RMX2_2_S_P $end
$var wire 1 ; RMX2_3_S_P $end
$var wire 1 < RMX2_4_S_P $end
$var wire 1 = RMX2_5_S_P $end
$var wire 1 > RMX2_6_S_P $end
$var wire 1 ? RL_3_W4 $end
$var wire 1 @ RL_3_W3 $end
$var wire 1 A RL_3_W2 $end
$var wire 1 B RL_3_W1 $end
$var wire 1 C RL_4_W4 $end
$var wire 1 D RL_4_W3 $end
$var wire 1 E RL_4_W2 $end
$var wire 1 F RL_4_W1 $end
$var wire 1 G RL_5_W4 $end
$var wire 1 H RL_5_W3 $end
$var wire 1 I RL_5_W2 $end
$var wire 1 J RL_5_W1 $end
$var wire 1 K RL_6_W4 $end
$var wire 1 L RL_6_W3 $end
$var wire 1 M RL_6_W2 $end
$var wire 1 N RL_6_W1 $end
$var wire 1 O RL_7_W4 $end
$var wire 1 P RL_7_W3 $end
$var wire 1 Q RL_7_W2 $end
$var wire 1 R RL_7_W1 $end
$var wire 1 S X0_S7 $end
$var wire 1 T X2_S0 $end
$var wire 1 U X1_S5 $end
$var wire 1 V RLI_1_F $end
$var wire 1 W RLI_2_F $end
$var wire 1 X RLI_0_F $end
$var wire 1 Y BF_E0 $end
$var wire 1 Z BF_E1 $end
$var wire 1 [ RMX2_1_I0 $end
$var wire 1 \ RMX2_1_I1 $end
$var wire 1 ] RMX2_3_I0 $end
$var wire 1 ^ RMX2_3_I1 $end
$var wire 1 _ RMX2_5_I0 $end
$var wire 1 ` RMX2_5_I1 $end
$var wire 1 a RMX2_7_I0 $end
$var wire 1 b RMX2_7_I1 $end
$var wire 1 c X1_CK_13 $end
$var wire 1 d X1_W3 $end
$var wire 1 e X2_CK_11 $end
$var wire 1 f X0_W0 $end
$var wire 1 g X0_W1 $end
$var wire 1 h X0_W2 $end
$var wire 1 i RCK_CK_03 $end
$var wire 1 j RCK_CK_02 $end
$var wire 1 k RCK_CKP $end
$var wire 1 l N11 $end
$var wire 1 m RW3_E1 $end
$var wire 1 n RW3_E3 $end
$var wire 1 o N61 $end
$var wire 1 p N25 $end
$var wire 1 q RW0_N1 $end
$var wire 1 r RW1_N1 $end
$var wire 1 s N74 $end
$var wire 1 t RW3_N1 $end
$var wire 1 u N49 $end
$var wire 1 v RW2_N1 $end
$var wire 8 w F [7:0] $end
$var wire 1 x N89 $end
$var wire 1 y VDD $end
$scope task _P0 $end
$upscope $end
$scope task _P1 $end
$upscope $end
$scope task _P2 $end
$upscope $end
$scope task _P3 $end
$upscope $end
$scope task _P4 $end
$upscope $end
$scope task _P5 $end
$upscope $end
$scope task _P6 $end
$upscope $end
$scope task _P7 $end
$upscope $end
$scope task _P8 $end
$upscope $end
$scope task _P9 $end
$upscope $end
$var wire 1 z N280 $end
$var wire 1 { N270 $end
$var wire 1 | N261 $end
$var wire 1 } N250 $end
$var wire 1 ~ N249 $end
$var wire 1 !! N259 $end
$var wire 1 "! N269 $end
$var wire 1 #! N279 $end
$var wire 1 $! N118 $end
$var wire 1 %! N100 $end
$var wire 1 &! VSS $end
$upscope $end
$upscope $end
$enddefinitions
$end
$dumpvars
bX 7
bX !
bX w
Xy
X&!
X8
X9
X:
X;
X<
X=
X>
X6
X-
X,
X+
X*
X.
X/
X0
X1
X2
X3
X4
X5
X?
X@
XA
XB
XC
XD
XE
XF
XG
XH
XI
XJ
XK
XL
XM
XN
XO
XP
XQ
XR
Xz
X#!
X{
X"!
X|
X!!
X}
X~
X$!
X%!
Xx
Xs
Xo
Xu
Xp
Xl
XS
Xn
XT
XU
XV
XW
Xm
XX
XY
XZ
X[
X\
X]
X^
X_
X`
Xa
Xb
Xc
Xd
Xe
Xf
Xg
Xh
Xq
Xr
Xt
Xv
Xi
X"
Xj
X#
X$
X%
X&
X'
X(
X)
Xk
$end
#0
b0 7
b0 !
1o
1u
1p
1l
1X
1x
1s
1V
1%!
1W
1m
0t
0v
1n
0r
1T
0Z
1U
0f
0g
1S
0h
0j
1e
0&
0'
0(
0)
0$!
0$
0%
0#
1q
1Y
1d
1i
1c
1"
0k
0-
1z
1#!
1{
1"!
1|
1!!
1}
1~
1[
1\
1]
1^
1_
1`
1a
1b
08
0:
0<
0>
09
0;
0=
06
b11111111 w
#10
b11 !
1j
0e
0i
0"
0Y
0c
0d
1-
1,
1+
1*
1.
1/
10
11
12
13
14
15
1?
1@
1A
1B
1C
1D
1E
1F
1G
1H
1I
1J
1K
1L
1M
1N
1O
1P
1Q
1R
1k
18
19
1:
1;
1<
1=
1>
16
0z
0#!
0{
0"!
0|
0!!
0}
0~
0[
0\
0]
0^
0_
0`
0a
0b
b0 w
#20
b1 7
b0 !
0S
0j
1e
1i
1"
1Y
1c
1h
0-
0k
1z
1#!
1{
1"!
1|
1!!
1}
1~
1[
1\
1]
1^
1_
1`
1a
1b
08
0:
0<
0>
09
0;
0=
06
b11111111 w
#30
b11 !
1j
0e
0i
0"
0Y
0c
0h
1-
1k
18
19
1:
1;
1<
1=
1>
16
0z
0#!
0{
0"!
0|
0!!
0}
0~
0[
0\
0]
0^
0_
0`
0a
0b
b0 w
#40
b10 7
b0 !
0U
1S
0j
1e
1g
1i
1"
1Y
1c
0-
0k
1z
1#!
1{
1"!
1|
1!!
1}
1~
1[
1\
1]
1^
1_
1`
1a
1b
08
0:
0<
0>
09
0;
0=
06
b11111111 w
#50
b11 !
1j
0e
0i
0"
0Y
0c
0g
1-
1k
18
19
1:
1;
1<
1=
1>
16
0z
0#!
0{
0"!
0|
0!!
0}
0~
0[
0\
0]
0^
0_
0`
0a
0b
b0 w
#60
b11 7
b0 !
0S
0j
1e
1i
1"
1Y
1c
1f
0-
0k
1z
1#!
1{
1"!
1|
1!!
1}
1~
1[
1\
1]
1^
1_
1`
1a
1b
08
0:
0<
0>
09
0;
0=
06
b11111111 w
#70
b11 !
1j
0e
0i
0"
0Y
0c
0f
1-
1k
18
19
1:
1;
1<
1=
1>
16
0z
0#!
0{
0"!
0|
0!!
0}
0~
0[
0\
0]
0^
0_
0`
0a
0b
b0 w
#80
b100 7
b0 !
0T
1U
1S
0j
1e
1d
1i
1"
1Z
1c
0-
0k
1z
1#!
1{
1"!
1|
1!!
1}
1~
1[
1\
1]
1^
1_
1`
1a
1b
08
0:
0<
0>
09
0;
0=
06
b11111111 w
#90
b11 !
1j
0e
0i
0"
0Z
0c
0d
1-
1k
18
19
1:
1;
1<
1=
1>
16
0z
0#!
0{
0"!
0|
0!!
0}
0~
0[
0\
0]
0^
0_
0`
0a
0b
b0 w
#100
b101 7
b0 !
0S
0j
1e
1i
1"
1Z
1c
1h
0-
0k
1z
1#!
1{
1"!
1|
1!!
1}
1~
1[
1\
1]
1^
1_
1`
1a
1b
08
0:
0<
0>
09
0;
0=
06
b11111111 w
#110
b11 !
1j
0e
0i
0"
0Z
0c
0h
1-
1k
18
19
1:
1;
1<
1=
1>
16
0z
0#!
0{
0"!
0|
0!!
0}
0~
0[
0\
0]
0^
0_
0`
0a
0b
b0 w
#120
b110 7
b0 !
0U
1S
0j
1e
1g
1i
1"
1Z
1c
0-
0k
1z
1#!
1{
1"!
1|
1!!
1}
1~
1[
1\
1]
1^
1_
1`
1a
1b
08
0:
0<
0>
09
0;
0=
06
b11111111 w
#130
b11 !
1j
0e
0i
0"
0Z
0c
0g
1-
1k
18
19
1:
1;
1<
1=
1>
16
0z
0#!
0{
0"!
0|
0!!
0}
0~
0[
0\
0]
0^
0_
0`
0a
0b
b0 w
#140
b111 7
b0 !
0S
0j
1e
1i
1"
1Z
1c
1f
0-
0k
1z
1#!
1{
1"!
1|
1!!
1}
1~
1[
1\
1]
1^
1_
1`
1a
1b
08
0:
0<
0>
09
0;
0=
06
b11111111 w
#150
b11 !
1j
0e
0i
0"
0Z
0c
0f
1-
1k
18
19
1:
1;
1<
1=
1>
16
0z
0#!
0{
0"!
0|
0!!
0}
0~
0[
0\
0]
0^
0_
0`
0a
0b
b0 w
#160
b1000 7
b0 !
0n
1r
1T
1U
1S
0j
1e
0q
1Y
1d
1i
1"
1c
0,
0k
1z
1#!
1{
1"!
1|
1!!
1}
1~
1[
1\
1]
1^
1_
1`
1a
1b
08
0:
0<
0>
09
0;
0=
06
b11111111 w
#170
b11 !
1j
0e
0i
0"
0Y
0c
0d
1,
1k
18
19
1:
1;
1<
1=
1>
16
0z
0#!
0{
0"!
0|
0!!
0}
0~
0[
0\
0]
0^
0_
0`
0a
0b
b0 w
#180
b1001 7
b0 !
0S
0j
1e
1i
1"
1Y
1c
1h
0,
0k
1z
1#!
1{
1"!
1|
1!!
1}
1~
1[
1\
1]
1^
1_
1`
1a
1b
08
0:
0<
0>
09
0;
0=
06
b11111111 w
#190
b11 !
1j
0e
0i
0"
0Y
0c
0h
1,
1k
18
19
1:
1;
1<
1=
1>
16
0z
0#!
0{
0"!
0|
0!!
0}
0~
0[
0\
0]
0^
0_
0`
0a
0b
b0 w
#200
b1010 7
b0 !
0U
1S
0j
1e
1g
1i
1"
1Y
1c
0,
0k
1z
1#!
1{
1"!
1|
1!!
1}
1~
1[
1\
1]
1^
1_
1`
1a
1b
08
0:
0<
0>
09
0;
0=
06
b11111111 w
#210
b11 !
1j
0e
0i
0"
0Y
0c
0g
1,
1k
18
19
1:
1;
1<
1=
1>
16
0z
0#!
0{
0"!
0|
0!!
0}
0~
0[
0\
0]
0^
0_
0`
0a
0b
b0 w
#220
b1011 7
b0 !
0S
0j
1e
1i
1"
1Y
1c
1f
0,
0k
1z
1#!
1{
1"!
1|
1!!
1}
1~
1[
1\
1]
1^
1_
1`
1a
1b
08
0:
0<
0>
09
0;
0=
06
b11111111 w
#230
b11 !
1j
0e
0i
0"
0Y
0c
0f
1,
1k
18
19
1:
1;
1<
1=
1>
16
0z
0#!
0{
0"!
0|
0!!
0}
0~
0[
0\
0]
0^
0_
0`
0a
0b
b0 w
#240
b1100 7
b0 !
0T
1U
1S
0j
1e
1d
1i
1"
1Z
1c
0,
0k
1z
1#!
1{
1"!
1|
1!!
1}
1~
1[
1\
1]
1^
1_
1`
1a
1b
08
0:
0<
0>
09
0;
0=
06
b11111111 w
#250
b11 !
1j
0e
0i
0"
0Z
0c
0d
1,
1k
18
19
1:
1;
1<
1=
1>
16
0z
0#!
0{
0"!
0|
0!!
0}
0~
0[
0\
0]
0^
0_
0`
0a
0b
b0 w
#260
b1101 7
b0 !
0S
0j
1e
1i
1"
1Z
1c
1h
0,
0k
1z
1#!
1{
1"!
1|
1!!
1}
1~
1[
1\
1]
1^
1_
1`
1a
1b
08
0:
0<
0>
09
0;
0=
06
b11111111 w
#270
b11 !
1j
0e
0i
0"
0Z
0c
0h
1,
1k
18
19
1:
1;
1<
1=
1>
16
0z
0#!
0{
0"!
0|
0!!
0}
0~
0[
0\
0]
0^
0_
0`
0a
0b
b0 w
#280
b1110 7
b0 !
0U
1S
0j
1e
1g
1i
1"
1Z
1c
0,
0k
1z
1#!
1{
1"!
1|
1!!
1}
1~
1[
1\
1]
1^
1_
1`
1a
1b
08
0:
0<
0>
09
0;
0=
06
b11111111 w
#290
b11 !
1j
0e
0i
0"
0Z
0c
0g
1,
1k
18
19
1:
1;
1<
1=
1>
16
0z
0#!
0{
0"!
0|
0!!
0}
0~
0[
0\
0]
0^
0_
0`
0a
0b
b0 w
#300
b1111 7
b0 !
0S
0j
1e
1i
1"
1Z
1c
1f
0,
0k
1z
1#!
1{
1"!
1|
1!!
1}
1~
1[
1\
1]
1^
1_
1`
1a
1b
08
0:
0<
0>
09
0;
0=
06
b11111111 w
#310
b11 !
1j
0e
0i
0"
0Z
0c
0f
1,
1k
18
19
1:
1;
1<
1=
1>
16
0z
0#!
0{
0"!
0|
0!!
0}
0~
0[
0\
0]
0^
0_
0`
0a
0b
b0 w
#320
b10000 7
b0 !
0m
1n
0r
1T
1U
1S
0j
1e
1v
1Y
1d
1i
1"
1c
0+
0k
1z
1#!
1{
1"!
1|
1!!
1}
1~
1[
1\
1]
1^
1_
1`
1a
1b
08
0:
0<
0>
09
0;
0=
06
b11111111 w
#330
b11 !
1j
0e
0i
0"
0Y
0c
0d
1+
1k
18
19
1:
1;
1<
1=
1>
16
0z
0#!
0{
0"!
0|
0!!
0}
0~
0[
0\
0]
0^
0_
0`
0a
0b
b0 w
#340
b10001 7
b0 !
0S
0j
1e
1i
1"
1Y
1c
1h
0+
0k
1z
1#!
1{
1"!
1|
1!!
1}
1~
1[
1\
1]
1^
1_
1`
1a
1b
08
0:
0<
0>
09
0;
0=
06
b11111111 w
#350
b11 !
1j
0e
0i
0"
0Y
0c
0h
1+
1k
18
19
1:
1;
1<
1=
1>
16
0z
0#!
0{
0"!
0|
0!!
0}
0~
0[
0\
0]
0^
0_
0`
0a
0b
b0 w
#360
b10010 7
b0 !
0U
1S
0j
1e
1g
1i
1"
1Y
1c
0+
0k
1z
1#!
1{
1"!
1|
1!!
1}
1~
1[
1\
1]
1^
1_
1`
1a
1b
08
0:
0<
0>
09
0;
0=
06
b11111111 w
#370
b11 !
1j
0e
0i
0"
0Y
0c
0g
1+
1k
18
19
1:
1;
1<
1=
1>
16
0z
0#!
0{
0"!
0|
0!!
0}
0~
0[
0\
0]
0^
0_
0`
0a
0b
b0 w
#380
b10011 7
b0 !
0S
0j
1e
1i
1"
1Y
1c
1f
0+
0k
1z
1#!
1{
1"!
1|
1!!
1}
1~
1[
1\
1]
1^
1_
1`
1a
1b
08
0:
0<
0>
09
0;
0=
06
b11111111 w
#390
b11 !
1j
0e
0i
0"
0Y
0c
0f
1+
1k
18
19
1:
1;
1<
1=
1>
16
0z
0#!
0{
0"!
0|
0!!
0}
0~
0[
0\
0]
0^
0_
0`
0a
0b
b0 w
#400
b10100 7
b0 !
0T
1U
1S
0j
1e
1d
1i
1"
1Z
1c
0+
0k
1z
1#!
1{
1"!
1|
1!!
1}
1~
1[
1\
1]
1^
1_
1`
1a
1b
08
0:
0<
0>
09
0;
0=
06
b11111111 w
#410
b11 !
1j
0e
0i
0"
0Z
0c
0d
1+
1k
18
19
1:
1;
1<
1=
1>
16
0z
0#!
0{
0"!
0|
0!!
0}
0~
0[
0\
0]
0^
0_
0`
0a
0b
b0 w
#420
b10101 7
b0 !
0S
0j
1e
1i
1"
1Z
1c
1h
0+
0k
1z
1#!
1{
1"!
1|
1!!
1}
1~
1[
1\
1]
1^
1_
1`
1a
1b
08
0:
0<
0>
09
0;
0=
06
b11111111 w
#430
b11 !
1j
0e
0i
0"
0Z
0c
0h
1+
1k
18
19
1:
1;
1<
1=
1>
16
0z
0#!
0{
0"!
0|
0!!
0}
0~
0[
0\
0]
0^
0_
0`
0a
0b
b0 w
#440
b10110 7
b0 !
0U
1S
0j
1e
1g
1i
1"
1Z
1c
0+
0k
1z
1#!
1{
1"!
1|
1!!
1}
1~
1[
1\
1]
1^
1_
1`
1a
1b
08
0:
0<
0>
09
0;
0=
06
b11111111 w
#450
b11 !
1j
0e
0i
0"
0Z
0c
0g
1+
1k
18
19
1:
1;
1<
1=
1>
16
0z
0#!
0{
0"!
0|
0!!
0}
0~
0[
0\
0]
0^
0_
0`
0a
0b
b0 w
#460
b10111 7
b0 !
0S
0j
1e
1i
1"
1Z
1c
1f
0+
0k
1z
1#!
1{
1"!
1|
1!!
1}
1~
1[
1\
1]
1^
1_
1`
1a
1b
08
0:
0<
0>
09
0;
0=
06
b11111111 w
#470
b11 !
1j
0e
0i
0"
0Z
0c
0f
1+
1k
18
19
1:
1;
1<
1=
1>
16
0z
0#!
0{
0"!
0|
0!!
0}
0~
0[
0\
0]
0^
0_
0`
0a
0b
b0 w
#480
b11000 7
b0 !
0n
1t
1T
1U
1S
0j
1e
0v
1Y
1d
1i
1"
1c
0*
0k
1z
1#!
1{
1"!
1|
1!!
1}
1~
1[
1\
1]
1^
1_
1`
1a
1b
08
0:
0<
0>
09
0;
0=
06
b11111111 w
#490
b11 !
1j
0e
0i
0"
0Y
0c
0d
1*
1k
18
19
1:
1;
1<
1=
1>
16
0z
0#!
0{
0"!
0|
0!!
0}
0~
0[
0\
0]
0^
0_
0`
0a
0b
b0 w
#500
b11001 7
b0 !
0S
0j
1e
1i
1"
1Y
1c
1h
0*
0k
1z
1#!
1{
1"!
1|
1!!
1}
1~
1[
1\
1]
1^
1_
1`
1a
1b
08
0:
0<
0>
09
0;
0=
06
b11111111 w
#510
b11 !
1j
0e
0i
0"
0Y
0c
0h
1*
1k
18
19
1:
1;
1<
1=
1>
16
0z
0#!
0{
0"!
0|
0!!
0}
0~
0[
0\
0]
0^
0_
0`
0a
0b
b0 w
#520
b11010 7
b0 !
0U
1S
0j
1e
1g
1i
1"
1Y
1c
0*
0k
1z
1#!
1{
1"!
1|
1!!
1}
1~
1[
1\
1]
1^
1_
1`
1a
1b
08
0:
0<
0>
09
0;
0=
06
b11111111 w
#530
b11 !
1j
0e
0i
0"
0Y
0c
0g
1*
1k
18
19
1:
1;
1<
1=
1>
16
0z
0#!
0{
0"!
0|
0!!
0}
0~
0[
0\
0]
0^
0_
0`
0a
0b
b0 w
#540
b11011 7
b0 !
0S
0j
1e
1i
1"
1Y
1c
1f
0*
0k
1z
1#!
1{
1"!
1|
1!!
1}
1~
1[
1\
1]
1^
1_
1`
1a
1b
08
0:
0<
0>
09
0;
0=
06
b11111111 w
#550
b11 !
1j
0e
0i
0"
0Y
0c
0f
1*
1k
18
19
1:
1;
1<
1=
1>
16
0z
0#!
0{
0"!
0|
0!!
0}
0~
0[
0\
0]
0^
0_
0`
0a
0b
b0 w
#560
b11100 7
b0 !
0T
1U
1S
0j
1e
1d
1i
1"
1Z
1c
0*
0k
1z
1#!
1{
1"!
1|
1!!
1}
1~
1[
1\
1]
1^
1_
1`
1a
1b
08
0:
0<
0>
09
0;
0=
06
b11111111 w
#570
b11 !
1j
0e
0i
0"
0Z
0c
0d
1*
1k
18
19
1:
1;
1<
1=
1>
16
0z
0#!
0{
0"!
0|
0!!
0}
0~
0[
0\
0]
0^
0_
0`
0a
0b
b0 w
#580
b11101 7
b0 !
0S
0j
1e
1i
1"
1Z
1c
1h
0*
0k
1z
1#!
1{
1"!
1|
1!!
1}
1~
1[
1\
1]
1^
1_
1`
1a
1b
08
0:
0<
0>
09
0;
0=
06
b11111111 w
#590
b11 !
1j
0e
0i
0"
0Z
0c
0h
1*
1k
18
19
1:
1;
1<
1=
1>
16
0z
0#!
0{
0"!
0|
0!!
0}
0~
0[
0\
0]
0^
0_
0`
0a
0b
b0 w
#600
b11110 7
b0 !
0U
1S
0j
1e
1g
1i
1"
1Z
1c
0*
0k
1z
1#!
1{
1"!
1|
1!!
1}
1~
1[
1\
1]
1^
1_
1`
1a
1b
08
0:
0<
0>
09
0;
0=
06
b11111111 w
#610
b11 !
1j
0e
0i
0"
0Z
0c
0g
1*
1k
18
19
1:
1;
1<
1=
1>
16
0z
0#!
0{
0"!
0|
0!!
0}
0~
0[
0\
0]
0^
0_
0`
0a
0b
b0 w
#620
b11111 7
b0 !
0S
0j
1e
1i
1"
1Z
1c
1f
0*
0k
1z
1#!
1{
1"!
1|
1!!
1}
1~
1[
1\
1]
1^
1_
1`
1a
1b
08
0:
0<
0>
09
0;
0=
06
b11111111 w
#630
b11 !
1j
0e
0i
0"
0Z
0c
0f
1*
1k
18
19
1:
1;
1<
1=
1>
16
0z
0#!
0{
0"!
0|
0!!
0}
0~
0[
0\
0]
0^
0_
0`
0a
0b
b0 w
#640
b100000 7
b0 !
0%!
0W
1m
0t
1n
1T
1U
1S
0j
1e
1#
1$!
1q
1Y
1d
1i
1"
1c
0.
0"
0-
0k
1z
1#!
1{
1"!
1|
1!!
1}
1~
1[
1\
1]
1^
1_
1`
1a
1b
08
0:
0<
0>
09
0;
0=
06
b11111111 w
#650
b11 !
1j
0e
0i
0#
0Y
0c
0d
1-
1.
1k
18
19
1:
1;
1<
1=
1>
16
0z
0#!
0{
0"!
0|
0!!
0}
0~
0[
0\
0]
0^
0_
0`
0a
0b
b0 w
#660
b100001 7
b0 !
0S
0j
1e
1i
1#
1Y
1c
1h
0.
0k
1z
1#!
1{
1"!
1|
1!!
1}
1~
1[
1\
1]
1^
1_
1`
1a
1b
08
0:
0<
0>
09
0;
0=
06
b11111111 w
#670
b11 !
1j
0e
0i
0#
0Y
0c
0h
1.
1k
18
19
1:
1;
1<
1=
1>
16
0z
0#!
0{
0"!
0|
0!!
0}
0~
0[
0\
0]
0^
0_
0`
0a
0b
b0 w
#680
b100010 7
b0 !
0U
1S
0j
1e
1g
1i
1#
1Y
1c
0.
0k
1z
1#!
1{
1"!
1|
1!!
1}
1~
1[
1\
1]
1^
1_
1`
1a
1b
08
0:
0<
0>
09
0;
0=
06
b11111111 w
#690
b11 !
1j
0e
0i
0#
0Y
0c
0g
1.
1k
18
19
1:
1;
1<
1=
1>
16
0z
0#!
0{
0"!
0|
0!!
0}
0~
0[
0\
0]
0^
0_
0`
0a
0b
b0 w
#700
b100011 7
b0 !
0S
0j
1e
1i
1#
1Y
1c
1f
0.
0k
1z
1#!
1{
1"!
1|
1!!
1}
1~
1[
1\
1]
1^
1_
1`
1a
1b
08
0:
0<
0>
09
0;
0=
06
b11111111 w
#710
b11 !
1j
0e
0i
0#
0Y
0c
0f
1.
1k
18
19
1:
1;
1<
1=
1>
16
0z
0#!
0{
0"!
0|
0!!
0}
0~
0[
0\
0]
0^
0_
0`
0a
0b
b0 w
#720
b100100 7
b0 !
0T
1U
1S
0j
1e
1d
1i
1#
1Z
1c
0.
0k
1z
1#!
1{
1"!
1|
1!!
1}
1~
1[
1\
1]
1^
1_
1`
1a
1b
08
0:
0<
0>
09
0;
0=
06
b11111111 w
#730
b11 !
1j
0e
0i
0#
0Z
0c
0d
1.
1k
18
19
1:
1;
1<
1=
1>
16
0z
0#!
0{
0"!
0|
0!!
0}
0~
0[
0\
0]
0^
0_
0`
0a
0b
b0 w
#740
b100101 7
b0 !
0S
0j
1e
1i
1#
1Z
1c
1h
0.
0k
1z
1#!
1{
1"!
1|
1!!
1}
1~
1[
1\
1]
1^
1_
1`
1a
1b
08
0:
0<
0>
09
0;
0=
06
b11111111 w
#750
b11 !
1j
0e
0i
0#
0Z
0c
0h
1.
1k
18
19
1:
1;
1<
1=
1>
16
0z
0#!
0{
0"!
0|
0!!
0}
0~
0[
0\
0]
0^
0_
0`
0a
0b
b0 w
#760
b100110 7
b0 !
0U
1S
0j
1e
1g
1i
1#
1Z
1c
0.
0k
1z
1#!
1{
1"!
1|
1!!
1}
1~
1[
1\
1]
1^
1_
1`
1a
1b
08
0:
0<
0>
09
0;
0=
06
b11111111 w
#770
b11 !
1j
0e
0i
0#
0Z
0c
0g
1.
1k
18
19
1:
1;
1<
1=
1>
16
0z
0#!
0{
0"!
0|
0!!
0}
0~
0[
0\
0]
0^
0_
0`
0a
0b
b0 w
#780
b100111 7
b0 !
0S
0j
1e
1i
1#
1Z
1c
1f
0.
0k
1z
1#!
1{
1"!
1|
1!!
1}
1~
1[
1\
1]
1^
1_
1`
1a
1b
08
0:
0<
0>
09
0;
0=
06
b11111111 w
#790
b11 !
1j
0e
0i
0#
0Z
0c
0f
1.
1k
18
19
1:
1;
1<
1=
1>
16
0z
0#!
0{
0"!
0|
0!!
0}
0~
0[
0\
0]
0^
0_
0`
0a
0b
b0 w
#800
b101000 7
b0 !
0n
1r
1T
1U
1S
0j
1e
0q
1Y
1d
1i
1#
1c
0/
0k
1z
1#!
1{
1"!
1|
1!!
1}
1~
1[
1\
1]
1^
1_
1`
1a
1b
08
0:
0<
0>
09
0;
0=
06
b11111111 w
#810
b11 !
1j
0e
0i
0#
0Y
0c
0d
1/
1k
18
19
1:
1;
1<
1=
1>
16
0z
0#!
0{
0"!
0|
0!!
0}
0~
0[
0\
0]
0^
0_
0`
0a
0b
b0 w
#820
b101001 7
b0 !
0S
0j
1e
1i
1#
1Y
1c
1h
0/
0k
1z
1#!
1{
1"!
1|
1!!
1}
1~
1[
1\
1]
1^
1_
1`
1a
1b
08
0:
0<
0>
09
0;
0=
06
b11111111 w
#830
b11 !
1j
0e
0i
0#
0Y
0c
0h
1/
1k
18
19
1:
1;
1<
1=
1>
16
0z
0#!
0{
0"!
0|
0!!
0}
0~
0[
0\
0]
0^
0_
0`
0a
0b
b0 w
#840
b101010 7
b0 !
0U
1S
0j
1e
1g
1i
1#
1Y
1c
0/
0k
1z
1#!
1{
1"!
1|
1!!
1}
1~
1[
1\
1]
1^
1_
1`
1a
1b
08
0:
0<
0>
09
0;
0=
06
b11111111 w
#850
b11 !
1j
0e
0i
0#
0Y
0c
0g
1/
1k
18
19
1:
1;
1<
1=
1>
16
0z
0#!
0{
0"!
0|
0!!
0}
0~
0[
0\
0]
0^
0_
0`
0a
0b
b0 w
#860
b101011 7
b0 !
0S
0j
1e
1i
1#
1Y
1c
1f
0/
0k
1z
1#!
1{
1"!
1|
1!!
1}
1~
1[
1\
1]
1^
1_
1`
1a
1b
08
0:
0<
0>
09
0;
0=
06
b11111111 w
#870
b11 !
1j
0e
0i
0#
0Y
0c
0f
1/
1k
18
19
1:
1;
1<
1=
1>
16
0z
0#!
0{
0"!
0|
0!!
0}
0~
0[
0\
0]
0^
0_
0`
0a
0b
b0 w
