share/tutorials/yagle/rom/rom6/r256x8_6.vcd
$date
   Nov 06, 2003  12:10:33
$end
$version
   Synopsys 1076 VHDL Simulator Version 2000.12
$end
$timescale
   1 ps
$end

$comment Csum: 1 c7b67e0e46e487f2 $end

$scope module TB_R256X8_6 $end
$scope module INS_R256X8_6 $end
$var wire 2 ! CK [1:0] $end
$var wire 1 " RL_0_E1 $end
$var wire 1 # RL_1_E1 $end
$var wire 1 $ RL_2_E1 $end
$var wire 1 % RL_3_E1 $end
$var wire 1 & RL_4_E1 $end
$var wire 1 ' RL_5_E1 $end
$var wire 1 ( RL_6_E1 $end
$var wire 1 ) RL_7_E1 $end
$scope task REG0 $end
$upscope $end
$scope task REG1 $end
$upscope $end
$scope task _P10 $end
$upscope $end
$scope task _P11 $end
$upscope $end
$scope task _P12 $end
$upscope $end
$scope task _P22 $end
$upscope $end
$scope task _P23 $end
$upscope $end
$scope task _P24 $end
$upscope $end
$scope task _P25 $end
$upscope $end
$scope task _P26 $end
$upscope $end
$scope task _P13 $end
$upscope $end
$scope task _P14 $end
$upscope $end
$scope task _P15 $end
$upscope $end
$scope task _P16 $end
$upscope $end
$scope task _P17 $end
$upscope $end
$scope task _P18 $end
$upscope $end
$scope task _P19 $end
$upscope $end
$scope task _P20 $end
$upscope $end
$scope task _P21 $end
$upscope $end
$scope task _P27 $end
$upscope $end
$scope task _P28 $end
$upscope $end
$scope task _P29 $end
$upscope $end
$scope task _P30 $end
$upscope $end
$scope task _P31 $end
$upscope $end
$scope task _P32 $end
$upscope $end
$scope task _P33 $end
$upscope $end
$scope task _P34 $end
$upscope $end
$scope task _P35 $end
$upscope $end
$scope task REG2 $end
$upscope $end
$scope task REG3 $end
$upscope $end
$scope task REG4 $end
$upscope $end
$scope task REG5 $end
$upscope $end
$scope task REG6 $end
$upscope $end
$scope task REG7 $end
$upscope $end
$scope task REG8 $end
$upscope $end
$scope task REG9 $end
$upscope $end
$scope task _P36 $end
$upscope $end
$scope task _P37 $end
$upscope $end
$scope task _P38 $end
$upscope $end
$scope task _P39 $end
$upscope $end
$scope task _P40 $end
$upscope $end
$scope task _P41 $end
$upscope $end
$scope task _P42 $end
$upscope $end
$scope task _P43 $end
$upscope $end
$var wire 1 * RMX2_0_S_P $end
$var wire 1 + RMX2_1_S_P $end
$var wire 1 , RMX2_2_S_P $end
$var wire 1 - RMX2_3_S_P $end
$var wire 1 . RMX2_4_S_P $end
$scope task REG10 $end
$upscope $end
$scope task REG11 $end
$upscope $end
$scope task REG12 $end
$upscope $end
$scope task REG13 $end
$upscope $end
$scope task REG14 $end
$upscope $end
$scope task REG15 $end
$upscope $end
$scope task REG16 $end
$upscope $end
$scope task REG17 $end
$upscope $end
$scope task REG18 $end
$upscope $end
$scope task REG19 $end
$upscope $end
$scope task REG20 $end
$upscope $end
$scope task REG21 $end
$upscope $end
$scope task REG22 $end
$upscope $end
$scope task REG23 $end
$upscope $end
$scope task REG24 $end
$upscope $end
$scope task REG25 $end
$upscope $end
$scope task REG26 $end
$upscope $end
$var wire 8 / ADR [7:0] $end
$scope task REG27 $end
$upscope $end
$scope task REG28 $end
$upscope $end
$scope task REG29 $end
$upscope $end
$scope task REG30 $end
$upscope $end
$scope task REG31 $end
$upscope $end
$scope task REG32 $end
$upscope $end
$scope task REG33 $end
$upscope $end
$scope task REG34 $end
$upscope $end
$scope task REG35 $end
$upscope $end
$scope task REG36 $end
$upscope $end
$scope task REG37 $end
$upscope $end
$scope task REG38 $end
$upscope $end
$scope task REG39 $end
$upscope $end
$scope task REG40 $end
$upscope $end
$scope task REG41 $end
$upscope $end
$scope task REG42 $end
$upscope $end
$scope task REG43 $end
$upscope $end
$scope task REG44 $end
$upscope $end
$scope task REG45 $end
$upscope $end
$scope task REG46 $end
$upscope $end
$scope task REG47 $end
$upscope $end
$scope task REG48 $end
$upscope $end
$scope task REG49 $end
$upscope $end
$scope task REG50 $end
$upscope $end
$scope task REG51 $end
$upscope $end
$scope task REG52 $end
$upscope $end
$scope task REG53 $end
$upscope $end
$scope task REG54 $end
$upscope $end
$scope task REG55 $end
$upscope $end
$var wire 1 0 RMX2_5_S_P $end
$var wire 1 1 RMX2_6_S_P $end
$var wire 1 2 RMX2_7_S_P $end
$var wire 1 3 RL_0_W4 $end
$var wire 1 4 RL_0_W3 $end
$var wire 1 5 RL_0_W2 $end
$var wire 1 6 RL_0_W1 $end
$var wire 1 7 RL_1_W4 $end
$var wire 1 8 RL_1_W3 $end
$var wire 1 9 RL_1_W2 $end
$var wire 1 : RL_1_W1 $end
$var wire 1 ; RL_2_W4 $end
$var wire 1 < RL_2_W3 $end
$var wire 1 = RL_2_W2 $end
$var wire 1 > RL_2_W1 $end
$var wire 1 ? RL_3_W4 $end
$var wire 1 @ RL_3_W3 $end
$var wire 1 A RL_3_W2 $end
$var wire 1 B RL_3_W1 $end
$var wire 1 C RL_4_W4 $end
$var wire 1 D RL_4_W3 $end
$var wire 1 E RL_4_W2 $end
$var wire 1 F RL_4_W1 $end
$var wire 1 G RL_5_W4 $end
$var wire 1 H RL_5_W3 $end
$var wire 1 I RL_5_W2 $end
$var wire 1 J RL_5_W1 $end
$var wire 1 K RL_6_W4 $end
$var wire 1 L RL_6_W3 $end
$var wire 1 M RL_6_W2 $end
$var wire 1 N RL_6_W1 $end
$var wire 1 O RL_7_W4 $end
$var wire 1 P RL_7_W3 $end
$var wire 1 Q RL_7_W2 $end
$var wire 1 R RL_7_W1 $end
$var wire 1 S N1974 $end
$var wire 1 T N1700 $end
$var wire 1 U N1497 $end
$var wire 1 V N1226 $end
$var wire 1 W N1021 $end
$var wire 1 X X0_S7 $end
$var wire 1 Y X1_S5 $end
$var wire 1 Z RLI_1_F $end
$var wire 1 [ RLI_2_F $end
$var wire 1 \ RLI_0_F $end
$var wire 1 ] X1_CK_13 $end
$var wire 1 ^ X1_W3 $end
$var wire 1 _ X2_CK_11 $end
$var wire 1 ` X0_W0 $end
$var wire 1 a X0_W1 $end
$var wire 1 b X0_W2 $end
$var wire 1 c RCK_CK_03 $end
$var wire 1 d RCK_CK_02 $end
$var wire 1 e RCK_CKP $end
$var wire 1 f RMX4_0_BIT_P $end
$var wire 1 g RMX4_1_BIT_P $end
$var wire 1 h RMX4_2_BIT_P $end
$var wire 1 i RMX4_3_BIT_P $end
$var wire 1 j RMX4_4_BIT_P $end
$var wire 1 k RMX4_5_BIT_P $end
$var wire 1 l RMX4_6_BIT_P $end
$var wire 1 m RMX4_7_BIT_P $end
$var wire 1 n RMX4_8_BIT_P $end
$var wire 1 o RMX4_9_BIT_P $end
$var wire 1 p RW3_E1 $end
$var wire 1 q RW3_E3 $end
$var wire 1 r RW0_N1 $end
$var wire 1 s RW1_N1 $end
$var wire 1 t RW2_N1 $end
$var wire 1 u N75 $end
$var wire 1 v RW3_N1 $end
$var wire 8 w F [7:0] $end
$var wire 1 x RMX4_10_BIT_P $end
$var wire 1 y RMX4_11_BIT_P $end
$var wire 1 z RMX4_12_BIT_P $end
$var wire 1 { RMX4_13_BIT_P $end
$var wire 1 | RMX4_14_BIT_P $end
$var wire 1 } RMX4_15_BIT_P $end
$var wire 1 ~ VDD $end
$scope task _P0 $end
$upscope $end
$scope task _P1 $end
$upscope $end
$scope task _P2 $end
$upscope $end
$scope task _P3 $end
$upscope $end
$scope task _P4 $end
$upscope $end
$scope task _P5 $end
$upscope $end
$scope task _P6 $end
$upscope $end
$scope task _P7 $end
$upscope $end
$scope task _P8 $end
$upscope $end
$scope task _P9 $end
$upscope $end
$var wire 1 !! N281 $end
$var wire 1 "! N753 $end
$var wire 1 #! VSS $end
$upscope $end
$upscope $end
$enddefinitions
$end
$dumpvars
bX /
bX !
bX w
X~
X#!
X*
X+
X,
X-
X.
X0
X1
X2
Xf
Xg
Xh
Xi
Xj
Xk
Xl
Xm
Xn
Xo
Xx
Xy
Xz
X{
X|
X}
X3
X4
X5
X6
X7
X8
X9
X:
X;
X<
X=
X>
X?
X@
XA
XB
XC
XD
XE
XF
XG
XH
XI
XJ
XK
XL
XM
XN
XO
XP
XQ
XR
XS
XT
XU
XV
XW
X"!
X!!
Xu
XX
Xq
XY
XZ
X[
Xp
X\
X]
X^
X_
X`
Xa
Xb
Xr
Xs
Xv
Xt
Xc
X"
Xd
X#
X$
X%
X&
X'
X(
X)
Xe
$end
#0
b0 /
b0 !
1W
1"!
1!!
1u
1\
1U
1V
1Z
1T
1[
1p
0v
0t
1q
0s
1Y
0`
0a
1X
0b
0d
1_
0&
0'
0(
0)
0S
0$
0%
0#
1r
1^
1c
1]
1"
0e
03
#10
b11 !
1d
0_
0c
0"
0]
0^
13
14
15
16
17
18
19
1:
1;
1<
1=
1>
1?
1@
1A
1B
1C
1D
1E
1F
1G
1H
1I
1J
1K
1L
1M
1N
1O
1P
1Q
1R
1e
1*
1+
1,
1-
1.
10
11
12
1f
1g
1h
1i
1j
1k
1l
1m
1n
1o
1x
1y
1z
1{
1|
1}
b0 w
#20
b1 /
b0 !
0X
0d
1_
1c
1"
1]
1b
03
0e
#30
b11 !
1d
0_
0c
0"
0]
0b
13
1e
#40
b10 /
b0 !
0Y
1X
0d
1_
1a
1c
1"
1]
03
0e
#50
b11 !
1d
0_
0c
0"
0]
0a
13
1e
#60
b11 /
b0 !
0X
0d
1_
1c
1"
1]
1`
03
0e
#70
b11 !
1d
0_
0c
0"
0]
0`
13
1e
#80
b100 /
b0 !
1Y
1X
0d
1_
1^
1c
1"
1]
03
0e
#90
b11 !
1d
0_
0c
0"
0]
0^
13
1e
#100
b101 /
b0 !
0X
0d
1_
1c
1"
1]
1b
03
0e
#110
b11 !
1d
0_
0c
0"
0]
0b
13
1e
#120
b110 /
b0 !
0Y
1X
0d
1_
1a
1c
1"
1]
03
0e
#130
b11 !
1d
0_
0c
0"
0]
0a
13
1e
#140
b111 /
b0 !
0X
0d
1_
1c
1"
1]
1`
03
0e
#150
b11 !
1d
0_
0c
0"
0]
0`
13
1e
#160
b1000 /
b0 !
0q
1s
1Y
1X
0d
1_
0r
1^
1c
1"
1]
04
0e
#170
b11 !
1d
0_
0c
0"
0]
0^
14
1e
#180
b1001 /
b0 !
0X
0d
1_
1c
1"
1]
1b
04
0e
#190
b11 !
1d
0_
0c
0"
0]
0b
14
1e
#200
b1010 /
b0 !
0Y
1X
0d
1_
1a
1c
1"
1]
04
0e
#210
b11 !
1d
0_
0c
0"
0]
0a
14
1e
#220
b1011 /
b0 !
0X
0d
1_
1c
1"
1]
1`
04
0e
#230
b11 !
1d
0_
0c
0"
0]
0`
14
1e
#240
b1100 /
b0 !
1Y
1X
0d
1_
1^
1c
1"
1]
04
0e
#250
b11 !
1d
0_
0c
0"
0]
0^
14
1e
#260
b1101 /
b0 !
0X
0d
1_
1c
1"
1]
1b
04
0e
#270
b11 !
1d
0_
0c
0"
0]
0b
14
1e
#280
b1110 /
b0 !
0Y
1X
0d
1_
1a
1c
1"
1]
04
0e
#290
b11 !
1d
0_
0c
0"
0]
0a
14
1e
#300
b1111 /
b0 !
0X
0d
1_
1c
1"
1]
1`
04
0e
#310
b11 !
1d
0_
0c
0"
0]
0`
14
1e
#320
b10000 /
b0 !
0p
1q
0s
1Y
1X
0d
1_
1t
1^
1c
1"
1]
05
0e
#330
b11 !
1d
0_
0c
0"
0]
0^
15
1e
#340
b10001 /
b0 !
0X
0d
1_
1c
1"
1]
1b
05
0e
#350
b11 !
1d
0_
0c
0"
0]
0b
15
1e
#360
b10010 /
b0 !
0Y
1X
0d
1_
1a
1c
1"
1]
05
0e
#370
b11 !
1d
0_
0c
0"
0]
0a
15
1e
#380
b10011 /
b0 !
0X
0d
1_
1c
1"
1]
1`
05
0e
#390
b11 !
1d
0_
0c
0"
0]
0`
15
1e
#400
b10100 /
b0 !
1Y
1X
0d
1_
1^
1c
1"
1]
05
0e
#410
b11 !
1d
0_
0c
0"
0]
0^
15
1e
#420
b10101 /
b0 !
0X
0d
1_
1c
1"
1]
1b
05
0e
#430
b11 !
1d
0_
0c
0"
0]
0b
15
1e
#440
b10110 /
b0 !
0Y
1X
0d
1_
1a
1c
1"
1]
05
0e
#450
b11 !
1d
0_
0c
0"
0]
0a
15
1e
#460
b10111 /
b0 !
0X
0d
1_
1c
1"
1]
1`
05
0e
#470
b11 !
1d
0_
0c
0"
0]
0`
15
1e
#480
b11000 /
b0 !
0q
1v
1Y
1X
0d
1_
0t
1^
1c
1"
1]
06
0e
#490
b11 !
1d
0_
0c
0"
0]
0^
16
1e
#500
b11001 /
b0 !
0X
0d
1_
1c
1"
1]
1b
06
0e
#510
b11 !
1d
0_
0c
0"
0]
0b
16
1e
#520
b11010 /
b0 !
0Y
1X
0d
1_
1a
1c
1"
1]
06
0e
#530
b11 !
1d
0_
0c
0"
0]
0a
16
1e
#540
b11011 /
b0 !
0X
0d
1_
1c
1"
1]
1`
06
0e
#550
b11 !
1d
0_
0c
0"
0]
0`
16
1e
#560
b11100 /
b0 !
1Y
1X
0d
1_
1^
1c
1"
1]
06
0e
#570
b11 !
1d
0_
0c
0"
0]
0^
16
1e
#580
b11101 /
b0 !
0X
0d
1_
1c
1"
1]
1b
06
0e
#590
b11 !
1d
0_
0c
0"
0]
0b
16
1e
#600
b11110 /
b0 !
0Y
1X
0d
1_
1a
1c
1"
1]
06
0e
#610
b11 !
1d
0_
0c
0"
0]
0a
16
1e
#620
b11111 /
b0 !
0X
0d
1_
1c
1"
1]
1`
06
0e
#630
b11 !
1d
0_
0c
0"
0]
0`
16
1e
#640
b100000 /
b0 !
0T
0[
1p
0v
1q
1Y
1X
0d
1_
1#
1S
1r
1^
1c
1"
1]
07
0"
03
0e
#650
b11 !
1d
0_
0c
0#
0]
0^
13
17
1e
#660
b100001 /
b0 !
0X
0d
1_
1c
1#
1]
1b
07
0e
#670
b11 !
1d
0_
0c
0#
0]
0b
17
1e
#680
b100010 /
b0 !
0Y
1X
0d
1_
1a
1c
1#
1]
07
0e
#690
b11 !
1d
0_
0c
0#
0]
0a
17
1e
#700
b100011 /
b0 !
0X
0d
1_
1c
1#
1]
1`
07
0e
#710
b11 !
1d
0_
0c
0#
0]
0`
17
1e
#720
b100100 /
b0 !
1Y
1X
0d
1_
1^
1c
1#
1]
07
0e
#730
b11 !
1d
0_
0c
0#
0]
0^
17
1e
#740
b100101 /
b0 !
0X
0d
1_
1c
1#
1]
1b
07
0e
#750
b11 !
1d
0_
0c
0#
0]
0b
17
1e
#760
b100110 /
b0 !
0Y
1X
0d
1_
1a
1c
1#
1]
07
0e
#770
b11 !
1d
0_
0c
0#
0]
0a
17
1e
#780
b100111 /
b0 !
0X
0d
1_
1c
1#
1]
1`
07
0e
#790
b11 !
1d
0_
0c
0#
0]
0`
17
1e
#800
b101000 /
b0 !
0q
1s
1Y
1X
0d
1_
0r
1^
1c
1#
1]
08
0e
#810
b11 !
1d
0_
0c
0#
0]
0^
18
1e
#820
b101001 /
b0 !
0X
0d
1_
1c
1#
1]
1b
08
0e
#830
b11 !
1d
0_
0c
0#
0]
0b
18
1e
#840
b101010 /
b0 !
0Y
1X
0d
1_
1a
1c
1#
1]
08
0e
#850
b11 !
1d
0_
0c
0#
0]
0a
18
1e
#860
b101011 /
b0 !
0X
0d
1_
1c
1#
1]
1`
08
0e
#870
b11 !
1d
0_
0c
0#
0]
0`
18
1e
#880
b101100 /
b0 !
1Y
1X
0d
1_
1^
1c
1#
1]
08
0e
#890
b11 !
1d
0_
0c
0#
0]
0^
18
1e
#900
b101101 /
b0 !
0X
0d
1_
1c
1#
1]
1b
08
0e
#910
b11 !
1d
0_
0c
0#
0]
0b
18
1e
#920
b101110 /
b0 !
0Y
1X
0d
1_
1a
1c
1#
1]
08
0e
#930
b11 !
1d
0_
0c
0#
0]
0a
18
1e
#940
b101111 /
b0 !
0X
0d
1_
1c
1#
1]
1`
08
0e
#950
b11 !
1d
0_
0c
0#
0]
0`
18
1e
#960
b110000 /
b0 !
0p
1q
0s
1Y
1X
0d
1_
1t
1^
1c
1#
1]
09
0e
#970
b11 !
1d
0_
0c
0#
0]
0^
19
1e
#980
b110001 /
b0 !
0X
0d
1_
1c
1#
1]
1b
09
0e
#990
b11 !
1d
0_
0c
0#
0]
0b
19
1e
#1000
b110010 /
b0 !
0Y
1X
0d
1_
1a
1c
1#
1]
09
0e
#1010
b11 !
1d
0_
0c
0#
0]
0a
19
1e
#1020
b110011 /
b0 !
0X
0d
1_
1c
1#
1]
1`
09
0e
#1030
b11 !
1d
0_
0c
0#
0]
0`
19
1e
#1040
b110100 /
b0 !
1Y
1X
0d
1_
1^
1c
1#
1]
09
0e
#1050
b11 !
1d
0_
0c
0#
0]
0^
19
1e
#1060
b110101 /
b0 !
0X
0d
1_
1c
1#
1]
1b
09
0e
#1070
b11 !
1d
0_
0c
0#
0]
0b
19
1e
#1080
b110110 /
b0 !
0Y
1X
0d
1_
1a
1c
1#
1]
09
0e
#1090
b11 !
1d
0_
0c
0#
0]
0a
19
1e
#1100
b110111 /
b0 !
0X
0d
1_
1c
1#
1]
1`
09
0e
#1110
b11 !
1d
0_
0c
0#
0]
0`
19
1e
#1120
b111000 /
b0 !
0q
1v
1Y
1X
0d
1_
0t
1^
1c
1#
1]
0:
0e
#1130
b11 !
1d
0_
0c
0#
0]
0^
1:
1e
#1140
b111001 /
b0 !
0X
0d
1_
1c
1#
1]
1b
0:
0e
#1150
b11 !
1d
0_
0c
0#
0]
0b
1:
1e
#1160
b111010 /
b0 !
0Y
1X
0d
1_
1a
1c
1#
1]
0:
0e
#1170
b11 !
1d
0_
0c
0#
0]
0a
1:
1e
#1180
b111011 /
b0 !
0X
0d
1_
1c
1#
1]
1`
0:
0e
#1190
b11 !
1d
0_
0c
0#
0]
0`
1:
1e
#1200
b111100 /
b0 !
1Y
1X
0d
1_
1^
1c
1#
1]
0:
0e
#1210
b11 !
1d
0_
0c
0#
0]
0^
1:
1e
#1220
b111101 /
b0 !
0X
0d
1_
1c
1#
1]
1b
0:
0e
#1230
b11 !
1d
0_
0c
0#
0]
0b
1:
1e
#1240
b111110 /
b0 !
0Y
1X
0d
1_
1a
1c
1#
1]
0:
0e
#1250
b11 !
1d
0_
0c
0#
0]
0a
1:
1e
#1260
b111111 /
b0 !
0X
0d
1_
1c
1#
1]
1`
0:
0e
#1270
b11 !
1d
0_
0c
0#
0]
0`
1:
1e
#1280
b1000000 /
b0 !
0Z
1T
1[
1p
0v
1q
1Y
1X
0d
1_
0U
1r
1^
1c
1]
1$
0e
0;
#1290
b11 !
1d
0_
0c
0$
0]
0^
1;
1e
#1300
b1000001 /
b0 !
0X
0d
1_
1c
1$
1]
1b
0;
0e
#1310
b11 !
1d
0_
0c
0$
0]
0b
1;
1e
#1320
b1000010 /
b0 !
0Y
1X
0d
1_
1a
1c
1$
1]
0;
0e
#1330
b11 !
1d
0_
0c
0$
0]
0a
1;
1e
#1340
b1000011 /
b0 !
0X
0d
1_
1c
1$
1]
1`
0;
0e
#1350
b11 !
1d
0_
0c
0$
0]
0`
1;
1e
#1360
b1000100 /
b0 !
1Y
1X
0d
1_
1^
1c
1$
1]
0;
0e
#1370
b11 !
1d
0_
0c
0$
0]
0^
1;
1e
#1380
b1000101 /
b0 !
0X
0d
1_
1c
1$
1]
1b
0;
0e
#1390
b11 !
1d
0_
0c
0$
0]
0b
1;
1e
#1400
b1000110 /
b0 !
0Y
1X
0d
1_
1a
1c
1$
1]
0;
0e
#1410
b11 !
1d
0_
0c
0$
0]
0a
1;
1e
#1420
b1000111 /
b0 !
0X
0d
1_
1c
1$
1]
1`
0;
0e
#1430
b11 !
1d
0_
0c
0$
0]
0`
1;
1e
#1440
b1001000 /
b0 !
0q
1s
1Y
1X
0d
1_
0r
1^
1c
1$
1]
0<
0e
#1450
b11 !
1d
0_
0c
0$
0]
0^
1<
1e
#1460
b1001001 /
b0 !
0X
0d
1_
1c
1$
1]
1b
0<
0e
#1470
b11 !
1d
0_
0c
0$
0]
0b
1<
1e
#1480
b1001010 /
b0 !
0Y
1X
0d
1_
1a
1c
1$
1]
0<
0e
#1490
b11 !
1d
0_
0c
0$
0]
0a
1<
1e
#1500
b1001011 /
b0 !
0X
0d
1_
1c
1$
1]
1`
0<
0e
#1510
b11 !
1d
0_
0c
0$
0]
0`
1<
1e
#1520
b1001100 /
b0 !
1Y
1X
0d
1_
1^
1c
1$
1]
0<
0e
#1530
b11 !
1d
0_
0c
0$
0]
0^
1<
1e
#1540
b1001101 /
b0 !
0X
0d
1_
1c
1$
1]
1b
0<
0e
#1550
b11 !
1d
0_
0c
0$
0]
0b
1<
1e
#1560
b1001110 /
b0 !
0Y
1X
0d
1_
1a
1c
1$
1]
0<
0e
#1570
b11 !
1d
0_
0c
0$
0]
0a
1<
1e
#1580
b1001111 /
b0 !
0X
0d
1_
1c
1$
1]
1`
0<
0e
#1590
b11 !
1d
0_
0c
0$
0]
0`
1<
1e
#1600
b1010000 /
b0 !
0p
1q
0s
1Y
1X
0d
1_
1t
1^
1c
1$
1]
0=
0e
#1610
b11 !
1d
0_
0c
0$
0]
0^
1=
1e
#1620
b1010001 /
b0 !
0X
0d
1_
1c
1$
1]
1b
0=
0e
#1630
b11 !
1d
0_
0c
0$
0]
0b
1=
1e
#1640
b1010010 /
b0 !
0Y
1X
0d
1_
1a
1c
1$
1]
0=
0e
#1650
b11 !
1d
0_
0c
0$
0]
0a
1=
1e
#1660
b1010011 /
b0 !
0X
0d
1_
1c
1$
1]
1`
0=
0e
#1670
b11 !
1d
0_
0c
0$
0]
0`
1=
1e
#1680
b1010100 /
b0 !
1Y
1X
0d
1_
1^
1c
1$
1]
0=
0e
#1690
b11 !
1d
0_
0c
0$
0]
0^
1=
1e
#1700
b1010101 /
b0 !
0X
0d
1_
1c
1$
1]
1b
0=
0e
#1710
b11 !
1d
0_
0c
0$
0]
0b
1=
1e
#1720
b1010110 /
b0 !
0Y
1X
0d
1_
1a
1c
1$
1]
0=
0e
#1730
b11 !
1d
0_
0c
0$
0]
0a
1=
1e
#1740
b1010111 /
b0 !
0X
0d
1_
1c
1$
1]
1`
0=
0e
#1750
b11 !
1d
0_
0c
0$
0]
0`
1=
1e
#1760
b1011000 /
b0 !
0q
1v
1Y
1X
0d
1_
0t
1^
1c
1$
1]
0>
0e
#1770
b11 !
1d
0_
0c
0$
0]
0^
1>
1e
#1780
b1011001 /
b0 !
0X
0d
1_
1c
1$
1]
1b
0>
0e
#1790
b11 !
1d
0_
0c
0$
0]
0b
1>
1e
#1800
b1011010 /
b0 !
0Y
1X
0d
1_
1a
1c
1$
1]
0>
0e
#1810
b11 !
1d
0_
0c
0$
0]
0a
1>
1e
#1820
b1011011 /
b0 !
0X
0d
1_
1c
1$
1]
1`
0>
0e
#1830
b11 !
1d
0_
0c
0$
0]
0`
1>
1e
#1840
b1011100 /
b0 !
1Y
1X
0d
1_
1^
1c
1$
1]
0>
0e
#1850
b11 !
1d
0_
0c
0$
0]
0^
1>
1e
#1860
b1011101 /
b0 !
0X
0d
1_
1c
1$
1]
1b
0>
0e
#1870
b11 !
1d
0_
0c
0$
0]
0b
1>
1e
#1880
b1011110 /
b0 !
0Y
1X
0d
1_
1a
1c
1$
1]
0>
0e
#1890
b11 !
1d
0_
0c
0$
0]
0a
1>
1e
#1900
b1011111 /
b0 !
0X
0d
1_
1c
1$
1]
1`
0>
0e
#1910
b11 !
1d
0_
0c
0$
0]
0`
1>
1e
#1920
b1100000 /
b0 !
0V
0[
1p
0v
1q
1Y
1X
0d
1_
1%
1U
1r
1^
1c
1$
1]
0?
0$
0;
0e
#1930
b11 !
1d
0_
0c
0%
0]
0^
1;
1?
1e
#1940
b1100001 /
b0 !
0X
0d
1_
1c
1%
1]
1b
0?
0e
#1950
b11 !
1d
0_
0c
0%
0]
0b
1?
1e
#1960
b1100010 /
b0 !
0Y
1X
0d
1_
1a
1c
1%
1]
0?
0e
#1970
b11 !
1d
0_
0c
0%
0]
0a
1?
1e
#1980
b1100011 /
b0 !
0X
0d
1_
1c
1%
1]
1`
0?
0e
#1990
b11 !
1d
0_
0c
0%
0]
0`
1?
1e
#2000
b1100100 /
b0 !
1Y
1X
0d
1_
1^
1c
1%
1]
0?
0e
#2010
b11 !
1d
0_
0c
0%
0]
0^
1?
1e
#2020
b1100101 /
b0 !
0X
0d
1_
1c
1%
1]
1b
0?
0e
#2030
b11 !
1d
0_
0c
0%
0]
0b
1?
1e
#2040
b1100110 /
b0 !
0Y
1X
0d
1_
1a
1c
1%
1]
0?
0e
#2050
b11 !
1d
0_
0c
0%
0]
0a
1?
1e
#2060
b1100111 /
b0 !
0X
0d
1_
1c
1%
1]
1`
0?
0e
#2070
b11 !
1d
0_
0c
0%
0]
0`
1?
1e
#2080
b1101000 /
b0 !
0q
1s
1Y
1X
0d
1_
0r
1^
1c
1%
1]
0@
0e
#2090
b11 !
1d
0_
0c
0%
0]
0^
1@
1e
#2100
b1101001 /
b0 !
0X
0d
1_
1c
1%
1]
1b
0@
0e
#2110
b11 !
1d
0_
0c
0%
0]
0b
1@
1e
#2120
b1101010 /
b0 !
0Y
1X
0d
1_
1a
1c
1%
1]
0@
0e
#2130
b11 !
1d
0_
0c
0%
0]
0a
1@
1e
#2140
b1101011 /
b0 !
0X
0d
1_
1c
1%
1]
1`
0@
0e
#2150
b11 !
1d
0_
0c
0%
0]
0`
1@
1e
#2160
b1101100 /
b0 !
1Y
1X
0d
1_
1^
1c
1%
1]
0@
0e
#2170
b11 !
1d
0_
0c
0%
0]
0^
1@
1e
#2180
b1101101 /
b0 !
0X
0d
1_
1c
1%
1]
1b
0@
0e
#2190
b11 !
1d
0_
0c
0%
0]
0b
1@
1e
#2200
b1101110 /
b0 !
0Y
1X
0d
1_
1a
1c
1%
1]
0@
0e
#2210
b11 !
1d
0_
0c
0%
0]
0a
1@
1e
#2220
b1101111 /
b0 !
0X
0d
1_
1c
1%
1]
1`
0@
0e
#2230
b11 !
1d
0_
0c
0%
0]
0`
1@
1e
#2240
b1110000 /
b0 !
0p
1q
0s
1Y
1X
0d
1_
1t
1^
1c
1%
1]
0A
0e
#2250
b11 !
1d
0_
0c
0%
0]
0^
1A
1e
#2260
b1110001 /
b0 !
0X
0d
1_
1c
1%
1]
1b
0A
0e
#2270
b11 !
1d
0_
0c
0%
0]
0b
1A
1e
#2280
b1110010 /
b0 !
0Y
1X
0d
1_
1a
1c
1%
1]
0A
0e
#2290
b11 !
1d
0_
0c
0%
0]
0a
1A
1e
#2300
b1110011 /
b0 !
0X
0d
1_
1c
1%
1]
1`
0A
0e
#2310
b11 !
1d
0_
0c
0%
0]
0`
1A
1e
#2320
b1110100 /
b0 !
1Y
1X
0d
1_
1^
1c
1%
1]
0A
0e
#2330
b11 !
1d
0_
0c
0%
0]
0^
1A
1e
#2340
b1110101 /
b0 !
0X
0d
1_
1c
1%
1]
1b
0A
0e
#2350
b11 !
1d
0_
0c
0%
0]
0b
1A
1e
#2360
b1110110 /
b0 !
0Y
1X
0d
1_
1a
1c
1%
1]
0A
0e
#2370
b11 !
1d
0_
0c
0%
0]
0a
1A
1e
#2380
b1110111 /
b0 !
0X
0d
1_
1c
1%
1]
1`
0A
0e
#2390
b11 !
1d
0_
0c
0%
0]
0`
1A
1e
#2400
b1111000 /
b0 !
0q
1v
1Y
1X
0d
1_
0t
1^
1c
1%
1]
0B
0e
#2410
b11 !
1d
0_
0c
0%
0]
0^
1B
1e
#2420
b1111001 /
b0 !
0X
0d
1_
1c
1%
1]
1b
0B
0e
#2430
b11 !
1d
0_
0c
0%
0]
0b
1B
1e
#2440
b1111010 /
b0 !
0Y
1X
0d
1_
1a
1c
1%
1]
0B
0e
#2450
b11 !
1d
0_
0c
0%
0]
0a
1B
1e
#2460
b1111011 /
b0 !
0X
0d
1_
1c
1%
1]
1`
0B
0e
#2470
b11 !
1d
0_
0c
0%
0]
0`
1B
1e
#2480
b1111100 /
b0 !
1Y
1X
0d
1_
1^
1c
1%
1]
0B
0e
#2490
b11 !
1d
0_
0c
0%
0]
0^
1B
1e
#2500
b1111101 /
b0 !
0X
0d
1_
1c
1%
1]
1b
0B
0e
#2510
b11 !
1d
0_
0c
0%
0]
0b
1B
1e
#2520
b1111110 /
b0 !
0Y
1X
0d
1_
1a
1c
1%
1]
0B
0e
#2530
b11 !
1d
0_
0c
0%
0]
0a
1B
1e
#2540
b1111111 /
b0 !
0X
0d
1_
1c
1%
1]
1`
0B
0e
#2550
b11 !
1d
0_
0c
0%
0]
0`
1B
1e
#2560
b10000000 /
b0 !
0\
1V
1Z
1[
1p
0v
1q
1Y
1X
0d
1_
0W
1r
1^
1c
1]
1&
0e
0C
#2570
b11 !
1d
0_
0c
0&
0]
0^
1C
1e
#2580
b10000001 /
b0 !
0X
0d
1_
1c
1&
1]
1b
0C
0e
#2590
b11 !
1d
0_
0c
0&
0]
0b
1C
1e
#2600
b10000010 /
b0 !
0Y
1X
0d
1_
1a
1c
1&
1]
0C
0e
#2610
b11 !
1d
0_
0c
0&
0]
0a
1C
1e
#2620
b10000011 /
b0 !
0X
0d
1_
1c
1&
1]
1`
0C
0e
#2630
b11 !
1d
0_
0c
0&
0]
0`
1C
1e
#2640
b10000100 /
b0 !
1Y
1X
0d
1_
1^
1c
1&
1]
0C
0e
#2650
b11 !
1d
0_
0c
0&
0]
0^
1C
1e
#2660
b10000101 /
b0 !
0X
0d
1_
1c
1&
1]
1b
0C
0e
#2670
b11 !
1d
0_
0c
0&
0]
0b
1C
1e
#2680
b10000110 /
b0 !
0Y
1X
0d
1_
1a
1c
1&
1]
0C
0e
#2690
b11 !
1d
0_
0c
0&
0]
0a
1C
1e
#2700
b10000111 /
b0 !
0X
0d
1_
1c
1&
1]
1`
0C
0e
